{
    "name": "CareContinuityImportRequests",
    "CSSClass": "row bottom-xs",
    "widgets": {
        "header": {
            "type": "markup",
            "options": {
                "CSSClass": "col-xs",
                "markup": "### Care Continuity Import Requests"
            }
        },
        "border": {
            "type": "markup",
            "options": {
                "CSSClass": "col-xs-12",
                "markup": "***"
            }
        },
        "ccdaExportRequestForm": {
            "operation": "update",
            "type": "forms",
            "options": {
                "formClass": "fieldset white-bg",
                "CSSClass": "col-xs-12",
                "form": [{
                    "type": "section",
                    "htmlClass": "row",
                    "sectionClass": "col-xs-12",
                    "items": [{
                        "type": "section",
                        "htmlClass": "row",
                        "sectionClass": "col-xs-12",
                        "items": [{
                            "type": "widget",
                            "name": "patientSerachForm",
                            "key": "$temp.patientSearch",
                            "title": "Patient Search",
                            "sectionClass": "col-xs-12",
                            "collapsible": true,
                            "content": {
                                "name": "patientSearchContainer",
                                "CSSClasses": "row no-margin",
                                "widgets": {
                                    "filterForm": {
                                        "type": "forms",
                                        "CSSClasses": "col-xs-12",
                                        "operation": "search",
                                        "nested": true,
                                        "marker": "patientSearch",
                                        "options": {
                                            "title": "Search Filter",
                                            "clear": "Clear",
                                            "form": [{
                                                "type": "section",
                                                "htmlClass": "row",
                                                "items": [{
                                                    "key": "firstName",
                                                    "sectionClass": "col-xs-3"
                                                }, {
                                                    "key": "lastName",
                                                    "sectionClass": "col-xs-3"
                                                }, {
                                                    "key": "id",
                                                    "sectionClass": "col-xs-3"
                                                }]
                                            }, {
                                                "type": "section",
                                                "htmlClass": "row",
                                                "sectionClass": "col-xs-12",
                                                "items": [{
                                                    "fieldHtmlClass": "btnWidth",
                                                    "type": "submit",
                                                    "title": "Search",
                                                    "style": "btn-default"
                                                }, {
                                                    "fieldHtmlClass": "btnWidth",
                                                    "type": "button",
                                                    "title": "Reset",
                                                    "onClick": "reset()",
                                                    "style": "btn-default"
                                                }]
                                            }]
                                        },
                                        "fetch": {
                                            "metaBone": {
                                                "objects": [{
                                                    "patient": ["*"]
                                                }]
                                            },
                                            "dataBone": {}
                                        }
                                    },
                                    "patientSearch": {
                                        "type": "gridBin",
                                        "CSSClasses": "col-xs-9",
                                        "options": {
                                            "marker": "patientSearch",
                                            "markerObject": "patient",
                                            "rekram": "patientSearch",
                                            "noDelete": true,
                                            "enableRowSelection": true,
                                            "multiSelect": true,
                                            "viewBtn": false,
                                            "noEdit": true,
                                            "pagination": true,
                                            "columnDefs": [{
                                                "field": "id",
                                                "width": "33%"
                                            }, {
                                                "field": "firstName",
                                                "width": "33%"
                                            }, {
                                                "field": "lastName",
                                                "width": "33%"
                                            }]
                                        },
                                        "fetch": {
                                            "dataBone": {}
                                        }
                                    }
                                }
                            }
                        }]
                    }, {
                        "key": "receiverDirectAddress",
                        "title": "Reciever Email",
                        "fieldHtmlClass": "",
                        "readonly": true,
                        "labelClass": "",
                        "sectionClass": "col-xs-3"
                    }, {
                        "key": "patientId",
                        "title": "Patient Id:",
                        "type": "phantom",
                        "htmlClass": "",
                        "fieldHtmlClass": "",
                        "labelHtmlClass": "",
                        "sectionClass": "col-xs-4",
                        "calculationFormula": "model.patientId"
                    }, {
                        "type": "section",
                        "sectionClass": "col-xs-12",
                        "items": [{
                            "type": "section",
                            "htmlClass": "fieldset  end-xs",
                            "items": [{
                                "type": "section",
                                "htmlClass": "row end-xs",
                                "items": [{
                                    "fieldHtmlClass": "btnWidth",
                                    "type": "submit",
                                    "title": "Save",
                                    "style": "btn-default"
                                }, {
                                    "fieldHtmlClass": "btnWidth",
                                    "type": "button",
                                    "title": "Cancel",
                                    "onClick": "cancel()",
                                    "style": "btn-default"
                                }]
                            }]
                        }]
                    }]
                }],
                "states": {
                    "onCancel": "carecontinuity.list",
                    "onSubmit": "carecontinuity.list"
                }
            },
            "srekram": [{
                "id": "patientSearch",
                "model": ["patientId"],
                "value": ["id"],
                "multi": false,
                "array": [],
                "form": ["patientId", "", ""]
            }],
            "fetch": {
                "metaBone": {
                    "objects": [{
                        "careContinuityImportRequest": ["*"]
                    }]
                }
            }
        }
    },
    "balls": [{
        "get": "careContinuityImportRequestId",
        "set": ["widgets", "ccdaExportRequestForm", "fetch", "dataBone", "populate", "objectId"]
    }]
}