{
    "name": "ListEmployee",
    "CSSClass": "row padding-24 white-bg bottom-xs",
    "widgets": {
        "header": {
            "type": "markup",
            "options": {
                "CSSClass": "col-xs",
                "markup": "### Employee List"
            }
        },
        "rightButtons": {
            "type": "nav",
            "options": {
                "CSSClass": "col-xs-3",
                "cssClass": {
                    "btn btn-default pull-right": true
                },
                "type": "state",
                "state": "employee.add",
                "text": "Add",
                "stateOptions": {
                    "inherit": false
                }
            }
        },
        "border": {
            "type": "markup",
            "options": {
                "CSSClass": "col-xs-12",
                "markup": "***"
            }
        },
        "employeeGrid": {
            "type": "gridBin",
            "options": {
                "addBtn": false,
                "CSSClass": "col-xs-12",
                "enableFiltering": true,
                "pagination": true,
                "paginationPageSize": 15,
                "noEdit": true,
                "noDelete": true,
                "columnDefs": [{
                    "field": "id",
                    "width": "25%"
                }, {
                    "field": "firstName",
                    "width": "15%"
                }, {
                    "field": "middleName",
                    "width": "10%"
                }, {
                    "field": "lastName",
                    "width": "13%"
                }, {
                    "field": "dob",
                    "width": "15%"
                }, {
                    "field": "statusValue",
                    "width": "12%"
                }, {
                    "field": "id",
                    "type": "widget",
                    "enableFiltering": false,
                    "displayName": "",
                    "cellClass": "no-padding-sides",
                    "content": {
                        "widgets": {
                            "buttons": {
                                "type": "nav",
                                "options": {
                                    "type": "list",
                                    "ulClass": {
                                        "action-buttons": true
                                    },
                                    "liClass": {
                                        "no-margin": true
                                    },
                                    "items": [{
                                        "type": "state",
                                        "state": "employee.demographics",
                                        "tooltip": "Employee Demographics",
                                        "cssClass": "{'font-20 set-margin': true}",
                                        "icon": "{'fa fa-pencil-square-o': true}",
                                        "stateParams": {}
                                    }, {
                                        "type": "state",
                                        "state": "employee.assignment.add",
                                        "tooltip": "Employee Assignment",
                                        "cssClass": "{'font-20 set-margin': !options.organizationEmployeeDivisionId,'hide': options.organizationEmployeeDivisionId}",
                                        "icon": "{'zmdi zmdi-assignment-account': true}",
                                        "stateParams": {}
                                    }, {
                                        "type": "state",
                                        "state": "employee.assignment.edit",
                                        "tooltip": "Employee Assignment",
                                        "cssClass": "{'font-20 set-margin': options.organizationEmployeeDivisionId, 'hide': !options.organizationEmployeeDivisionId}",
                                        "icon": "{'zmdi zmdi-assignment-account': true}",
                                        "stateParams": {}
                                    }, {
                                        "type": "bark",
                                        "icon": "{'fa fa-user-times': !inProgress,'fa fa-spinner fa-spin': inProgress, 'hide': options.status==='metaEmployeeStatus:inactive'}",
                                        "cssClass": "{'font-20 set-margin': true}",
                                        "payloads": [{
                                            "operation": "update",
                                            "data": {
                                                "conditions": {
                                                    "object": []
                                                },
                                                "properties": {
                                                    "status": "metaEmployeeStatus:inactive"
                                                }
                                            }
                                        }],
                                        "confirmMessage": "Are you sure you want to deactivate this employee?",
                                        "tooltip": "Deactivate employee"
                                    }]
                                }
                            }
                        },
                        "miniFrisbee": [{
                            "get": ["id"],
                            "set": ["widgets", "buttons", "options", "items", 0, "stateParams", "organisationEmployeeId"]
                        }, {
                            "get": ["id"],
                            "set": ["widgets", "buttons", "options", "items", 1, "stateParams", "organisationEmployeeId"]
                        }, {
                            "get": ["organizationEmployeeDivision", 0, "id"],
                            "set": ["widgets", "buttons", "options", "items", 1, "organizationEmployeeDivisionId"]
                        }, {
                            "get": ["id"],
                            "set": ["widgets", "buttons", "options", "items", 2, "stateParams", "organisationEmployeeId"]
                        }, {
                            "get": ["organizationEmployeeDivision", 0, "id"],
                            "set": ["widgets", "buttons", "options", "items", 2, "stateParams", "organizationEmployeeDivisionId"]
                        }, {
                            "get": ["organizationEmployeeDivision", 0, "id"],
                            "set": ["widgets", "buttons", "options", "items", 2, "organizationEmployeeDivisionId"]
                        }, {
                            "get": ["id"],
                            "set": ["widgets", "buttons", "options", "items", 3, "payloads", 0, "data", "conditions", "object", 0]
                        }, {
                            "get": ["status"],
                            "set": ["widgets", "buttons", "options", "items", 3, "status"]
                        }]
                    },
                    "repeat": {
                        "grid": false
                    }
                }],

                "states": {
                    "onAdd": "employee.add"
                }
            },
            "fetch": {
                "dataBone": {
                    "grid": {
                        "type": "organizationEmployee",
                        "child": [{
                            "type": "organizationEmployeeDivision"
                        }]
                    }
                }
            }
        }
    }
}
