{
    "name": "patientAssignment",
    "widgets": {
        "heading": {
            "type": "markup",
            "options": {
                "markup": "### Patient Assignment Edit\n***"
            }
        },
        
        "patientDivisionForm": {
            "type": "forms",
            "title": "Asign Patient Devision",
            "operation": "update",
            "options": {
                "form": [{
                    "type": "section",
                    "sectionClass": "col-xs-12",
                    "htmlClass": "row top-xs white-bg fieldset",
                    "items": [{
                        "key": "divisionId",
                        "title": "Patient Division Id",
                        "type": "select",
                        "sectionClass": "col-xs-3",
                        "displayValue": "displayValue"
                    }]
                }, {
                    "type": "section",
                    "sectionClass": "col-xs-12",
                    "htmlClass": "row",
                    "items": [{
                        "fieldHtmlClass": "btnWidth",
                        "type": "submit",
                        "title": "Save",
                        "style": "btn-default"
                    }, {
                        "fieldHtmlClass": "btnWidth",
                        "type": "button",
                        "title": "Cancel",
                        "onClick": "cancel()",
                        "style": "btn-default"
                    }]
                }],
                "states": {
                    "onSubmit": "patient.assignment.add",
                    "onCancel": "patient.assignment.add"
                }
            },
            "fetch": {
                "dataBone": {
                    "divisionId": {
                        "type": "organizationDivision"
                    },
                    "populate": {}
                },
                "metaBone": {
                    "objects": [{

                        "patientDivision": ["*"]
                    }]
                }
            }
        }
    },
    "balls": [{
        "get": "patientDivisionId",
        "set": ["widgets", "patientDivisionForm", "options", "parent"]
    }, {
        "get": "patientDivisionId",
        "set": ["widgets", "patientDivisionForm", "fetch", "dataBone", "populate", "objectId"]
    }]
}
