{
    "name": "EditImmunization",
    "widgets": {
        "head": {
            "type": "markup",
            "options": {
                "markup": "## Edit Immunization\n ***"
            }
        },
        "editForm": {
            "type": "forms",
            "operation": "update",
            "options": {
                "readonly": true,
                "view": true,
                "form": [{
                    "type": "section",
                    "htmlClass": "row middle-xs white-bg fieldset",
                    "items": [{
                        "key": "vaccine",
                        "type": "select",
                        "placeholder": "<- Select Vaccine ->",
                        "sectionClass": "col-xs-3"
                    }, {
                        "key": "administeredDate",
                        "type": "datepicker",
                        "title": "Administered Date:",
                        "sectionClass": "col-xs-3"
                    }, {
                        "type": "timepicker",
                        "key": "administeredTime",
                        "title": "Administered Time:",
                        "sectionClass": "col-xs-3"
                    }, {
                        "key": "administeredAmount",
                        "title": "Administered Amount:",
                        "sectionClass": "col-xs-3"
                    }, {
                        "key": "unit",
                        "type": "select",
                        "title": "Unit:",
                        "placeholder": "<- Select Unit ->",
                        "sectionClass": "col-xs-3"
                    }, {
                        "type": "datepicker",
                        "title": "Substance Expiration Date:",
                        "key": "substanceExpirationDate",
                        "sectionClass": "col-xs-3"
                    }, {
                        "placeholder": "<- Select Route ->",
                        "type": "select",
                        "title": "Route:",
                        "key": "route",
                        "sectionClass": "col-xs-3"
                    }, {
                        "placeholder": "<- Select Administration Site ->",
                        "type": "select",
                        "title": "Administration Site:",
                        "key": "administrationSite",
                        "sectionClass": "col-xs-3"
                    }, {
                        "title": "Administration Notes:",
                        "key": "administrationNotes",
                        "sectionClass": "col-xs-3"
                    }, {
                        "placeholder": "<- Ordered By ->",
                        "type": "select",
                        "title": "Ordered By:",
                        "key": "provider",
                        "displayValue": "displayValue",
                        "sectionClass": "col-xs-3"
                    }, {
                        "key": "lotNumber",
                        "title": "Lot Number:",
                        "sectionClass": "col-xs-3"
                    }, {
                        "placeholder": "<- Select Manufacturer ->",
                        "type": "select",
                        "key": "manufacturer",
                        "title": "Manufacturer:",
                        "sectionClass": "col-xs-3"
                    }, {
                        "placeholder": "<- Select VFC Financial Class ->",
                        "type": "select",
                        "title": "VFC Financial Class:",
                        "key": "vfcFinancialClass",
                        "sectionClass": "col-xs-3"
                    }, {
                        "key": "isPastImmunization",
                        "title": "Is Past Immunization:",
                        "sectionClass": "col-xs-3"
                    }, {
                        "key": "diagnosisCode",
                        "condition":"model.vaccine===\"metaVaccine:998\"",
                        "title": "Diagnosis Code",
                        "type": "multicheck",
                        "sectionClass": "col-xs-3"
                    }, {
                        "key": "administeredBy",
                        "placeholder": "<- Select Administered By ->",
                        "title": "Administered By",
                        "sectionClass": "col-xs-3"
                    },{
                        "key": "informationSource",
                        "title": "Info Source",
                        "placeholder": "<- Select Info Source ->",
                        "sectionClass": "col-xs-3"
                    }, {
                        "key": "refusedImmunization",
                        "title": "Refused Immunization",
                        "sectionClass": "col-xs-3"
                    }, {
                        "key": "refusalReason",
                        "title": "Refusal Reason",
                        "placeholder": "<- Select Refusal Reason ->",
                        "sectionClass": "col-xs-3",
                        "condition": "model.refusedImmunization"
                    }, {
                        "type": "section",
                        "htmlClass": "row end-xs",
                        "sectionClass": "col-xs-12",
                        "items": [{
                            "fieldHtmlClass": "btnWidth",
                            "type": "submit",
                            "title": "Save",
                            "style": "btn-default"
                        }, {
                            "fieldHtmlClass": "btnWidth",
                            "type": "button",
                            "title": "Reset",
                            "style": "btn-default",
                            "onClick": "reset()"
                        }, {
                            "fieldHtmlClass": "btnWidth",
                            "type": "button",
                            "title": "Cancel",
                            "onClick": "cancel()",
                            "style": "btn-default"
                        }]
                    }]
                }],
                "states": {
                    "onCancel": "patient.immunization.list",
                    "onSubmit": "patient.immunization.list"
                }
            },
            "fetch": {
                "metaBone": {
                    "objects": [{
                        "patientImmunization": ["*"]
                    }]
                },
                "dataBone": {
                    "vaccine": {
                        "type": "metaVaccine"
                    },
                    "route": {
                        "type": "metaImmunizationRoute"
                    },
                    "administrationSite": {
                        "type": "metaImmunizationLocation"
                    },
                    "administeredBy": {
                        "type": "organizationEmployee"
                    },
                    "provider": {
                        "type": "organizationEmployee"
                    },
                    "manufacturer": {
                        "type": "metaManufacturer"
                    },
                    "unit": {
                        "type": "metaImmunizationUnit"
                    },
                    "vfcFinancialClass": {
                        "type": "metaFinancialClass"
                    },
                    "diagnosisCode": {
                        "type": "patientDiagnosis"
                    },
                    "refusalReason": {
                        "type": "metaVaccineRefusalReason"
                    },
                    "informationSource": {
                        "type": "metaImmunizationInfoSource"
                    },
                    "populate": {}
                }
            }
        }
    },
    "balls": [{
        "get": "patientId",
        "set": ["widgets", "editForm", "options", "parent"]
    }, {
        "get": "patientImmunizationId",
        "set": ["widgets", "editForm", "fetch", "dataBone", "populate", "objectId"]
    }, {
        "get": "patientId",
        "set": ["widgets", "editForm", "fetch", "dataBone", "diagnosisCode", "conditions", "0", "patientId"]
    }]
}
