{
    "name": "encounterDetail",
    "CSSClass": "row",
    "widgets": {
        "tileA": {
            "type": "page",
            "options": {
                "content": {
                    "name": "filter",
                    "widgets": {
                        "heading": {
                            "type": "markup",
                            "options": {
                                "markup": "### Encounter Workflow\n***"
                            }
                        }
                    }
                },
                "CSSClass": "col-xs-3 white-bg background-content margin-bottom tilebox",
                "pipe": true
            }
        },
        "tileB": {
            "type": "page",
            "options": {
                "content": {
                    "name": "detail",
                    "widgets": {
                        "encounterDetailForm": {
                            "type": "forms",
                            "operation": "update",
                            "options": {
                                "title": "Patient Encounter",
                                "view": true,
                                "readonly": true,
                                "form": [{
                                    "type": "fieldset",
                                    "htmlClass": "",
                                    "title": "Patient Encounter",
                                    "items": [{
                                        "type": "section",
                                        "htmlClass": "row middle-xs white-bg fieldset",
                                        "items": [{
                                            "type": "section",
                                            "sectionClass": "col-xs-12",
                                            "items": [{
                                                "type": "section",
                                                "htmlClass": "row",
                                                "items": [{
                                                    "key": "program",
                                                    "title": "Program",
                                                    "htmlClass": "",
                                                    "fieldHtmlClass": "bg-green marginLeft20 col-xs-6",
                                                    "labelClass": "pull-left",
                                                    "sectionClass": "col-xs-6",
                                                    "displayValue": "organizationProgramIdName"
                                                }, {
                                                    "key": "encounterType",
                                                    "title": "Encounter Type(CPT):",
                                                    "htmlClass": "",
                                                    "fieldHtmlClass": "bg-green marginLeft20 col-xs-6",
                                                    "labelHtmlClass": "",
                                                    "sectionClass": "col-xs-6"
                                                }, {
                                                    "key": "encounterStartDate",
                                                    "title": "Encounter Start Date",
                                                    "type": "datepicker",
                                                    "htmlClass": "",
                                                    "fieldHtmlClass": "bg-green marginLeft20",
                                                    "labelClass": "pull-left",
                                                    "sectionClass": "col-xs-6"
                                                }, {
                                                    "key": "encounterStartTime",
                                                    "title": "Encounter Start Time",
                                                    "type": "text",
                                                    "htmlClass": "",
                                                    "fieldHtmlClass": "bg-green marginLeft20",
                                                    "labelClass": "pull-left",
                                                    "sectionClass": "col-xs-6"
                                                }, {
                                                    "key": "encounterEndDate",
                                                    "title": "Encounter End Date",
                                                    "type": "datepicker",
                                                    "htmlClass": "",
                                                    "fieldHtmlClass": "bg-green marginLeft20",
                                                    "labelClass": "pull-left",
                                                    "sectionClass": "col-xs-6"
                                                }, {
                                                    "key": "encounterEndTime",
                                                    "title": "Encounter End Time",
                                                    "type": "text",
                                                    "htmlClass": "",
                                                    "fieldHtmlClass": "bg-green marginLeft20",
                                                    "labelClass": "pull-left",
                                                    "sectionClass": "col-xs-6"
                                                }, {
                                                    "key": "createdBy",
                                                    "title": "Encounter Started by",
                                                    "type": "text",
                                                    "readonly": true,
                                                    "htmlClass": "",
                                                    "lableClass": "",
                                                    "sectionClass": "col-xs-6"
                                                }, {
                                                    "key": "approvedBy",
                                                    "title": "Encounter Completed By",
                                                    "type": "text",
                                                    "readonly": true,
                                                    "htmlClass": "",
                                                    "lableClass": "",
                                                    "sectionClass": "col-xs-6"
                                                }, {
                                                    "key": "approvedBySignature",
                                                    "title": "Approved By Signature",
                                                    "type": "text",
                                                    "readonly": true,
                                                    "htmlClass": "",
                                                    "lableClass": "",
                                                    "sectionClass": "col-xs-6"
                                                }, {
                                                    "key": "approvedDate",
                                                    "title": "Encounter Approved date",
                                                    "type": "text",
                                                    "readonly": true,
                                                    "htmlClass": "",
                                                    "lableClass": "",
                                                    "sectionClass": "col-xs-6"
                                                }, {
                                                    "key": "approvedTime",
                                                    "title": "Encounter Approved Time",
                                                    "type": "text",
                                                    "readonly": true,
                                                    "htmlClass": "",
                                                    "lableClass": "",
                                                    "sectionClass": "col-xs-6"
                                                }, {
                                                    "key": "service",
                                                    "title": "Service Linked to Encounter",
                                                    "type": "select",
                                                    "readonly": true,
                                                    "htmlClass": "",
                                                    "lableClass": "",
                                                    "sectionClass": "col-xs-12"
                                                }, {
                                                    "key": "attachments",
                                                    "title": "Attachments Linked to Encounter",
                                                    "type": "select",
                                                    "readonly": true,
                                                    "htmlClass": "",
                                                    "lableClass": "",
                                                    "sectionClass": "col-xs-12"
                                                }, {
                                                    "key": "medicationsReconciled",
                                                    "title": "All of the patient's current medications have been documented (above/below) using all immediate resources, including prescriptions, over-the-counters, herbals, and vitamin/mineral/dietary (nutritional) supplements.",
                                                    "type": "checkbox",
                                                    "htmlClass": "",
                                                    "lableClass": "",
                                                    "sectionClass": "col-xs-6"
                                                }, {
                                                    "key": "medicationReconciliationExceptionReason",
                                                    "title": "Medications Reconciliation Exception Reason",
                                                    "type": "select",
                                                    "condition":"!model.medicationsReconciled",
                                                    "htmlClass": "",
                                                    "lableClass": "",
                                                    "sectionClass": "col-xs-6"
                                                }, {
                                                    "key": "isFallRiskAssessment",
                                                    "title": "Fall Risk Assessment Performed",
                                                    "type": "checkbox",
                                                    "htmlClass": "",
                                                    "lableClass": "",
                                                    "sectionClass": "col-xs-6"
                                                },  {
                                                    "key": "fallRiskScreeningExceptionReason",
                                                    "title": "Fall Risk Screening Exception Reason",
                                                    "type": "select",
                                                    "condition":"!model.isFallRiskAssessment",
                                                    "htmlClass": "",
                                                    "lableClass": "",
                                                    "sectionClass": "col-xs-6"
                                                },{
                                                    "key": "isCognitiveAssessment",
                                                    "title": "Cognitive Risk Assessment Performed",
                                                    "type": "checkbox",
                                                    "htmlClass": "",
                                                    "lableClass": "",
                                                    "sectionClass": "col-xs-6"
                                                },  {
                                                    "key": "cognitiveRiskAssessmentExceptionReason",
                                                    "title": "Cognitive Risk Assessment Exception Reason",
                                                    "type": "select",
                                                    "condition":"!model.isCognitiveAssessment",
                                                    "htmlClass": "",
                                                    "lableClass": "",
                                                    "sectionClass": "col-xs-6"
                                                },{
                                                    "key": "isTobaccoCessationPlan",
                                                    "title": "Tobacco Screening Performed",
                                                    "type": "checkbox",
                                                    "htmlClass": "",
                                                    "lableClass": "",
                                                    "sectionClass": "col-xs-6"
                                                },  {
                                                    "key": "tobaccoScreeningExceptionReason",
                                                    "title": "Tobacco Screening Exception Reason",
                                                    "type": "select",
                                                    "condition":"!model.isTobaccoCessationPlan",
                                                    "htmlClass": "",
                                                    "lableClass": "",
                                                    "sectionClass": "col-xs-6"
                                                },{
                                                    "key": "isDepressionScreening",
                                                    "title": "Depression Screening Performed",
                                                    "type": "checkbox",
                                                    "htmlClass": "",
                                                    "lableClass": "",
                                                    "sectionClass": "col-xs-6"
                                                } ,{
                                                    "key": "depressionScreeningExceptionReason",
                                                    "title": "Depression Screening Exception Reason",
                                                    "type": "select",
                                                    "condition":"!model.isDepressionScreening",
                                                    "htmlClass": "",
                                                    "lableClass": "",
                                                    "sectionClass": "col-xs-6"
                                                }, {
                                                    "key": "hasDepressionSymptoms",
                                                    "title": "Depression Screening Positive",
                                                    "type": "checkbox",
                                                    "condition": "model.isDepressionScreening",
                                                    "htmlClass": "",
                                                    "lableClass": "",
                                                    "sectionClass": "col-xs-6"
                                                }, {
                                                    "key": "isDepressionFollowupPlanDocumented",
                                                    "title": "Depression Followup Plan Documented",
                                                    "type": "checkbox",
                                                    "condition": "model.hasDepressionSymptoms",
                                                    "htmlClass": "",
                                                    "lableClass": "",
                                                    "sectionClass": "col-xs-6"
                                                }, {
                                                    "key": "isPhq9TestPerformed",
                                                    "title": "PHQ-9 Test Performed",
                                                    "type": "checkbox",
                                                    "htmlClass": "",
                                                    "lableClass": "",
                                                    "sectionClass": "col-xs-12"
                                                } ,{
                                                    "key": "isBimsAssessmentPerformed",
                                                    "title": "BIMS Assessment Performed",
                                                    "type": "checkbox",
                                                    "htmlClass": "",
                                                    "lableClass": "",
                                                    "sectionClass": "col-xs-12"
                                                }
                                                ]
                                            }, {
                                                "type": "fieldset",
                                                "items": [{
                                                    "type": "section",
                                                    "htmlClass": "fieldset",
                                                    "items": [{
                                                        "type": "section",
                                                        "htmlClass": "row",
                                                        "items": [{
                                                            "fieldHtmlClass": "btnWidth",
                                                            "type": "submit",
                                                            "title": "Save",
                                                            "style": "btn-default"
                                                        }]
                                                    }]
                                                }]
                                            }]
                                        }]
                                    }]
                                }]
                            },
                            "fetch": {
                                "metaBone": {
                                    "objects": [{
                                        "patientEncounter": ["*"]
                                    }]
                                },
                                "dataBone": {
                                    "program": {
                                        "type": "organizationDivisionProgram"
                                    },
                                    "completedBy": {
                                        "type": "organizationEmployee"
                                    },
                                    "service": {
                                        "type": "patientService",
                                        "conditions": [{}]
                                    },
                                    "attachments": {
                                        "type": "patientService",
                                        "conditions": [{}]
                                    },
                                    "medicationReconciliationExceptionReason": {
                                        "type": "metaMedicationReconciliationExceptionReason"
                                    },
                                    "fallRiskScreeningExceptionReason": {
                                        "type": "metaFallRiskScreeningExceptionReason"
                                    },
                                    "cognitiveRiskAssessmentExceptionReason": {
                                        "type": "metaCognitiveRiskAssessmentExceptionReason"
                                    },
                                    "tobaccoScreeningExceptionReason": {
                                        "type": "metaTobaccoScreeningExceptionReason"
                                    },
                                    "depressionScreeningExceptionReason": {
                                        "type": "metaDepressionScreeningExceptionReason"
                                    },
                                    "populate": {}
                                }
                            }
                        }
                    }
                },
                "CSSClass": "col-xs-9 white-bg background-content margin-bottom tilebox",
                "pipe": true
            }
        }
    },
    "balls": [{
        "get": "patientEncounterId",
        "set": ["widgets", "tileB", "options", "content", "widgets", "encounterDetailForm", "fetch", "dataBone", "populate", "objectId"]
    }, {
        "get": "patientEncounterId",
        "set": ["widgets", "tileB", "options", "content", "widgets", "encounterDetailForm", "fetch", "dataBone", "service", "conditions", 0, "patientEncounterId"]
    }, {
        "get": "patientEncounterId",
        "set": ["widgets", "tileB", "options", "content", "widgets", "encounterDetailForm", "fetch", "dataBone", "attachments", "conditions", 0, "patientId"]
    }]
}
