{
    "name": "reminderAdd",
    "widgets": {
        "headings": {
            "type": "markup",
            "options": {
                "markup": "### Add Reminder<hr>"
            }
        },
        "reminderAdd": {
            "type": "forms",
            "operation": "create",
            "options": {
                "clearOnLoad": true,
                "formClass": "fieldset white-bg",
                "form": [{
                    "type": "section",
                    "htmlClass": "row",
                    "items": [{
                        "sectionClass": "col-xs-3",
                        "title":"Reminder Date",
                        "key": "dateSent",
                        "type": "datepicker"
                    }, {
                        "sectionClass": "col-xs-3",
                        "title":"Reminder Time",
                        "key": "timeSent",
                        "type": "timepicker"
                    }, {
                        "key": "medium",
                        "type":"select",
                        "placeholder":"<- Select Medium ->",
                        "sectionClass": "col-xs-3"
                    }, {
                        "key": "isReminder",
                        "title":"Is Reminder",
                        "sectionClass": "col-xs-3"
                    }, {
                        "key": "notes",
                        "title": "Notes",
                        "type": "textarea",
                        "sectionClass": "col-xs-12",
                        "htmlClass": "row",
                        "fieldHtmlClass": "col-xs-12",
                        "rows": 5
                    }, {
                        "type": "section",
                        "htmlClass": "row",
                        "sectionClass": "col-xs-12",
                        "items": [{
                            "fieldHtmlClass": "btnWidth",
                            "type": "submit",
                            "title": "Save",
                            "style": "btn-default"
                        }, {
                            "fieldHtmlClass": "btnWidth",
                            "type": "button",
                            "title": "Cancel",
                            "onClick": "cancel()",
                            "style": "btn-default"
                        }]
                    }]
                }],
                "states": {
                    "onSubmit": "patient.reminder.list",
                    "onCancel": "patient.reminder.list"
                }
            },
            "fetch": {
                "metaBone": {
                    "objects": [{
                        "patientReminder": ["*"]
                    }]
                },
                "dataBone": {
                    "medium": {
                        "type": "metaCommunicationMode"
                    }
                }
            }
        }
    },
    "balls": [{
        "get": "patientId",
        "set": ["widgets", "reminderAdd", "options", "parent"]
    }]
}
