{
    "name": "casedashboard",
    "CSSClass": "row",
    "widgets": {
        "heading": {
            "type": "markup",
            "options": {
                "markup": "### Case Dashboard\n***",
                "CSSClass": "col-xs-12"
            }
        },
        "tileA": {
            "type": "page",
            "options": {
                "content": {
                    "name": "caseManagemanet",
                    "widgets": {
                        "heading": {
                            "type": "markup",
                            "options": {
                                "markup": "### Case Managemanet\n***"
                            }
                        },
                        "tileData": {
                            "type": "markup",
                            "options": {
                                "markup": "\n | Program Name: [%tileCaseManagement.programName%] | Status: [%tileCaseManagement.status%] | \n|------------|\n|Intake Date: [%tileCaseManagement.intakeDate%]| Discharge Date: [%tileCaseManagement.dischargeDate%]| \n|Frequency: [%tileCaseManagement.frequency%]| \n"
                            },
                            "fetch": {
                                "dataBone": {
                                    "tileCaseManagement": {}
                                }
                            }
                        }
                    }
                },
                "CSSClass": "col-xs-6 white-bg background-content margin-bottom tilebox",
                "pipe": true
            }
        },
        "tileB": {
            "type": "page",
            "options": {
                "content": {
                    "name": "diagnosis",
                    "widgets": {
                        "heading": {
                            "type": "markup",
                            "options": {
                                "markup": "### Diagnosis\n***"
                            }
                        },
                        "tileData": {
                            "type": "markup",
                            "options": {
                                "repeat": true,
                                "repeatKey": "tileDiagnosis",
                                "markup": "\n| Start Date: [%startDate%]|Diagnosis Code: [%icd10Code%]|\n|------|-----|\n|Short Discription: [%notes%]|Provider: [%provider%]|\n|Program: [%program%]| \n"
                            },
                            "fetch": {
                                "dataBone": {
                                    "tileDiagnosis": {
                                        "type": "patientDiagnosis"
                                    }
                                }
                            }
                        }
                    }
                },
                "CSSClass": "col-xs-6 white-bg background-content margin-bottom tilebox",
                "pipe": true
            }
        },
        "tileC": {
            "type": "page",
            "options": {
                "content": {
                    "name": "treatmentPlan",
                    "widgets": {
                        "heading": {
                            "type": "markup",
                            "options": {
                                "markup": "###Treatment Plan###\n***"
                            }
                        }
                    }
                },
                "CSSClass": "col-xs-6 white-bg background-content margin-bottom tilebox",
                "pipe": true
            }
        },
        "tileD": {
            "type": "page",
            "options": {
                "content": {
                    "name": "encounterList",
                    "widgets": {
                        "heading": {
                            "type": "markup",
                            "options": {
                                "markup": "### Encounter List\n***"
                            }
                        },
                        "tileData": {
                            "type": "markup",
                            "options": {
                                "repeat": true,
                                "repeatKey": "tileEncounterList",
                                "markup": "\n|Status: [%status%]|Date: [%encounterStartDate%]|\n|------|-----|\n|Encounter Name: [%encounterType%]|Program: [%program%]|\n"
                            },
                            "fetch": {
                                "dataBone": {
                                    "tileEncounterList": {
                                        "type": "patientEncounter",
                                        "conditions": [{}]
                                    }
                                }
                            }
                        }
                    }
                },
                "CSSClass": "col-xs-6 white-bg background-content margin-bottom tilebox",
                "pipe": true
            }
        }
    },
    "balls": [{
        "get": "patientCaseId",
        "set": ["widgets", "tileA", "options", "content", "widgets", "tileData", "fetch", "dataBone", "tileCaseManagement", "objectId"]
    }, {
        "get": "patientCaseId",
        "set": ["widgets", "tileD", "options", "content", "widgets", "tileData", "fetch", "dataBone", "tileEncounterList", "conditions", 0, "patientCaseId"]
    },
    {
        "get": "patientId",
        "set": ["widgets", "tileB", "options","content", "widgets", "tileData", "fetch", "dataBone", "tileDiagnosis", "objectId"]
        }]
}
