{
    "name": "MedicationList",
    "CSSClass": "col-xs-12",
    "widgets": {
        "head": {
            "type": "markup",
            "options": {
                "CSSClass": "col-xs-12",
                "markup": "### Medication List \n   *** \n"
            }
        },
        "medicationGrid": {
            "type": "markup",
            "CSSClasses": "col-xs-12 fieldset white-bg",
            "options": {
                "markup": "|__Generic Name: __|[%data.medicationDrugGenericName%]|\n|---------|---------|\n|__Brand Name: __|[%data.medicationDrugBrandName%]|\n|__Start Date: __ |[%data.startDate%]|\n|__Stop Date: __|[%data.stopDate%]|\n|<a sref=\"patient.immunization.list\">Link to Immunization</a>|"
            },
            "fetch": {
                "dataBone": {
                    "data": {}
                }
            }
        },
        "tabA": {
            "type": "tab",
            "options": {
                "name": "tabs",
                "activeTab": 0,
                "CSSClass": "col-xs-12 background-content margin-bottom tilebox",
                "tabs": [{
                    "title": "Sig Data",
                    "content": {
                        "CSSClass": "row",
                        "name": "NoName3",
                        "widgets": {
                            "sigData": {
                                "type": "markup",
                                "options": {
                                    "markup": "[%data3.action%] [%data3.dose%] [%data3.doseUnit%] [%data3.route%] [%data3.doseTiming%] [%data3.durationText%] \n\n Substitution Permitted:[%data3.substitutionPermitted%] \n \n Refills: [%data3.refills%]\n \n Dose Others : [%data3.doseOther%] \n \n  Quantity : [%data3.quantity%] \n \n  Quantity Unit : [%data3.quantityUnit%] \n \n  Other Notes : [%data3.otherNotes%] \n \n  Patient Notes : [%data3.patientNotes%] \n \n   Comments : [%data3.comments%] \n \n "
                                },
                                "fetch": {
                                    "dataBone": {}
                                }
                            }
                        }
                    }
                }, {
                    "title": "Pharmacy",
                    "content": {
                        "CSSClass": "row",
                        "name": "NoName3",
                        "widgets": {
                            "pharmacy": {
                                "type": "markup",
                                "options": {
                                    "markup": "__NPI:__ [%data5.pharmacyNpi%] \n \n __Name:__ [%data5.pharmacyName%] \n \n __Address 1:__ [%data5.pharmacyAddress1%] \n \n __Address 2:__ [%data5.pharmacyAddress2%] \n \n __City:__ [%data5.pharmacyCity%] \n \n __State:__ [%data5.pharmacyState%] \n \n __Email:__ [%data5.pharmacyEmail%] \n \n "
                                },
                                "fetch": {
                                    "dataBone": {
                                        "data5": {}
                                    }
                                }
                            }
                        }
                    }
                }, {
                    "title": "Problem Data",
                    "content": {
                        "CSSClass": "row",
                        "name": "NoName3",
                        "widgets": {
                            "problem": {
                                "type": "markup",
                                "options": {
                                    "markup": "__Problem Icd 9 Code Primary:__ [%data4.problemIcd9CodeFirst%] \n \n __Problem Description Primary:__ [%data4.problemDescriptionFirst%] \n \n __Problem Icd 9 Code Secondary:__ [%data4.problemIcd9CodeSecond%] \n \n __Problem Description Secondary:__ [%data4.problemDescriptionSecond%] \n \n "
                                },
                                "fetch": {
                                    "dataBone": {
                                        "data4": {}
                                    }
                                }
                            }
                        }
                    }
                }, {
                    "title": "Provider",
                    "content": {
                        "CSSClass": "row",
                        "name": "NoName2",
                        "widgets": {
                            "markupData2": {
                                "type": "markup",
                                "options": {
                                    "markup": "__First Name:__ [%data1.medicationProviderFirstName%] \n \n __Last Name:__ [%data1.medicationProviderLastName%] \n \n __User Name:__ [%data1.medicationProviderUserName%] \n \n __NPI:__ [%data1.medicationProviderNpi%]"
                                },
                                "fetch": {
                                    "dataBone": {
                                        "data1": {}
                                    }
                                }
                            }
                        }
                    }
                }, {
                    "title": "Preparer",
                    "content": {
                        "CSSClass": "row",
                        "name": "NoName3",
                        "widgets": {
                            "markupData3": {
                                "type": "markup",
                                "options": {
                                    "markup": "__First Name:__ [%data2.medicationPreparerFirstName%] \n \n __Last Name:__ [%data2.medicationPreparerLastName%] \n \n  __User Name:__ [%data2.medicationPreparerUserName%]  \n \n "
                                },
                                "fetch": {
                                    "dataBone": {
                                        "data2": {}
                                    }
                                }
                            }
                        }
                    }
                }]
            }
        }
    },
    "balls": [{
        "get": "patientMedicationId",
        "set": ["widgets", "medicationGrid", "fetch", "dataBone", "data", "objectId"]
    }, {
        "get": "patientMedicationId",
        "set": ["widgets", "tabA", "options", "tabs", 0, "content", "widgets", "sigData", "fetch", "dataBone", "data3", "objectId"]
    }, {
        "get": "patientMedicationId",
        "set": ["widgets", "tabA", "options", "tabs", 3, "content", "widgets", "markupData2", "fetch", "dataBone", "data1", "objectId"]
    }, {
        "get": "patientMedicationId",
        "set": ["widgets", "tabA", "options", "tabs", 4, "content", "widgets", "markupData3", "fetch", "dataBone", "data2", "objectId"]
    }, {
        "get": "patientMedicationId",
        "set": ["widgets", "tabA", "options", "tabs", 1, "content", "widgets", "pharmacy", "fetch", "dataBone", "data5", "objectId"]
    }, {
        "get": "patientMedicationId",
        "set": ["widgets", "tabA", "options", "tabs", 2, "content", "widgets", "problem", "fetch", "dataBone", "data4", "objectId"]
    }]
}
