{
    "name": "Vitals",
    "widgets": {
        "heading": {
            "type": "markup",
            "options": {
                "markup": "## EDIT VITAL\n***"
            }
        },
        "editVitalsForm": {
            "type": "forms",
            "operation": "update",
            "options": {
                "form": [{
                    "type": "fieldset",
                    "htmlClass": "white-bg fieldset",
                    "objectType": "patientVital",
                    "title": "",
                    "items": [{
                        "type": "section",
                        "htmlClass": "row middle-xs",
                        "items": [{
                            "type": "section",
                            "sectionClass": "col-xs-10",
                            "items": [{
                                "type": "section",
                                "htmlClass": "row",
                                "items": [{
                                    "key": "createdOnDate",
                                    "title": "Date of entry:",
                                    "type": "datepicker",
                                    "htmlClass": "",
                                    "fieldHtmlClass": "",
                                    "labelHtmlClass": "",
                                    "sectionClass": "col-xs-3",
                                    "readonly": true
                                }, {
                                    "key": "createdOnTime",
                                    "title": "Time of entry:",
                                    "type": "text",
                                    "htmlClass": "",
                                    "fieldHtmlClass": "",
                                    "labelHtmlClass": "",
                                    "sectionClass": "col-xs-3",
                                    "readonly": true
                                }]
                            }]
                        }]
                    }, {
                        "type": "section",
                        "htmlClass": "row middle-xs",
                        "items": [{
                            "type": "section",
                            "sectionClass": "col-xs-10",
                            "items": [{
                                "type": "section",
                                "htmlClass": "row",
                                "items": [{
                                    "key": "observationDate",
                                    "title": "Observation Date:",
                                    "type": "datepicker",
                                    "htmlClass": "",
                                    "fieldHtmlClass": "",
                                    "labelHtmlClass": "",
                                    "sectionClass": "col-xs-3"
                                }, {
                                    "key": "observationTime",
                                    "title": "Observation Time:",
                                    "type": "timepicker",
                                    "htmlClass": "",
                                    "fieldHtmlClass": "",
                                    "labelHtmlClass": "",
                                    "sectionClass": "col-xs-3"
                                }]
                            }]
                        }]
                    }, {
                        "type": "section",
                        "htmlClass": "row middle-xs",
                        "items": [{
                            "type": "section",
                            "sectionClass": "col-xs-10",
                            "items": [{
                                "type": "section",
                                "htmlClass": "row middle-xs",
                                "items": [{
                                    "key": "heightUnit",
                                    "title": "Height(Unit)",
                                    "type": "select",
                                    "htmlClass": "",
                                    "fieldHtmlClass": "",
                                    "labelHtmlClass": "",
                                    "sectionClass": "col-xs-3"
                                }, {
                                    "type": "section",
                                    "sectionClass": "col-xs-9",
                                    "htmlClass": "row",
                                    "items": [{
                                        "key": "$temp.heightFeet",
                                        "title": "Height(feet):",
                                        "type": "phantom",
                                        "format": "number",
                                        "htmlClass": "col-xs-12",
                                        "fieldHtmlClass": "",
                                        "labelHtmlClass": "",
                                        "sectionClass": "",
                                        "condition": "model.heightUnit === 'metaHeightUnit:feetInch'",
                                        "calculationFormula": "model.heightFeet"
                                    }, {
                                        "key": "$temp.heightInch",
                                        "title": "Height(in):",
                                        "type": "phantom",
                                        "format": "number",
                                        "htmlClass": "col-xs-12",
                                        "fieldHtmlClass": "",
                                        "labelHtmlClass": "",
                                        "sectionClass": "",
                                        "condition": "model.heightUnit === 'metaHeightUnit:feetInch'",
                                        "calculationFormula": "model.heightInch"
                                    }, {
                                        "key": "$temp.heightCm",
                                        "title": "Height(cm):",
                                        "condition": "model.heightUnit=== \"metaHeightUnit:cm\"",
                                        "type": "phantom",
                                        "format": "number",
                                        "htmlClass": "col-xs-12",
                                        "fieldHtmlClass": "",
                                        "labelHtmlClass": "",
                                        "sectionClass": "",
                                        "calculationFormula": "model.height"
                                    }, {
                                        "key": "height",
                                        "title": "Height:",
                                        "type": "phantom",
                                        "format": "number",
                                        "htmlClass": "col-xs-12",
                                        "fieldHtmlClass": "",
                                        "labelHtmlClass": "",
                                        "sectionClass": "hide",
                                        "calculationFormula": "((model.heightUnit === 'metaHeightUnit:feetInch') && model.$temp.heightFeet && model.$temp.heightInch)? Math.round(  (model.$temp.heightFeet * 12 + model.$temp.heightInch) * 2.54 ): ((model.heightUnit === 'metaHeightUnit:cm' && model.$temp.heightCm) ? model.$temp.heightCm : model.height)"
                                    }]
                                }, {
                                    "key": "weightUnit",
                                    "title": "Weight(Unit)",
                                    "type": "select",
                                    "htmlClass": "",
                                    "fieldHtmlClass": "",
                                    "labelHtmlClass": "",
                                    "sectionClass": "col-xs-3"
                                }, {
                                    "type": "section",
                                    "sectionClass": "col-xs-3",
                                    "htmlClass": "row",
                                    "items": [{
                                        "key": "$temp.weightLbs",
                                        "title": "Weight(lbs):",
                                        "type": "phantom",
                                        "format": "number",
                                        "fieldHtmlClass": "",
                                        "labelHtmlClass": "",
                                        "condition": "model.weightUnit === \"metaWeightUnit:lbs\"",
                                        "sectionClass": "",
                                        "calculationFormula": "model.weightPound"
                                    }, {
                                        "key": "$temp.weightKgs",
                                        "condition": "model.weightUnit === \"metaWeightUnit:kg\"",
                                        "title": "Weight(kg):",
                                        "type": "phantom",
                                        "format": "number",
                                        "htmlClass": "",
                                        "fieldHtmlClass": "",
                                        "labelHtmlClass": "",
                                        "sectionClass": "",
                                        "calculationFormula": "model.weight"
                                    }, {
                                        "key": "weight",
                                        "title": "Weight:",
                                        "type": "phantom",
                                        "format": "number",
                                        "htmlClass": "",
                                        "fieldHtmlClass": "",
                                        "labelHtmlClass": "",
                                        "sectionClass": "hide",
                                        "calculationFormula": "(model.weightUnit === 'metaWeightUnit:lbs' && model.$temp.weightLbs)? Math.round(model.$temp.weightLbs *  0.45359237):((model.weightUnit === 'metaWeightUnit:kg' && model.$temp.weightKgs) ? model.$temp.weightKgs:model.weight)"
                                    }]
                                }, {
                                    "key": "$temp.bmi",
                                    "title": "BMI:",
                                    "type": "phantom",
                                    "format": "string",
                                    "readonly": true,
                                    "htmlClass": "",
                                    "fieldHtmlClass": " white-bg",
                                    "labelHtmlClass": "",
                                    "sectionClass": "col-xs-6",
                                    "calculationFormula": "(function() {var weight = 0;var height = 0;if (model.weightUnit === 'metaWeightUnit:lbs' && !isNaN(model.$temp.weightLbs)) {weight = Math.round(model.$temp.weightLbs * 0.45359237);} else if (model.weightUnit === 'metaWeightUnit:kg' && !isNaN(model.$temp.weightKgs)) {weight = model.$temp.weightKgs;}else if(model.weight){weight = model.weight;}if (model.heightUnit === 'metaHeightUnit:cm' && !isNaN(model.$temp.heightCm)) {height = model.$temp.heightCm;} else if (model.heightUnit === 'metaHeightUnit:feetInch' && !isNaN(model.$temp.heightInch) && !isNaN(model.$temp.heightFeet)) {height = Math.round((model.$temp.heightFeet * 12 + model.$temp.heightInch) * 2.54);}else if(model.height){height = model.height;}return height !== 0 ? (weight * 10000 / (height * height)).toFixed(2) : 'NA';})()"
                                }]
                            }]
                        }]
                    }, {
                        "type": "section",
                        "sectionClass": "col-xs-3",
                        "htmlClass": "row middle-xs",
                        "items": [{
                            "key": "temperature",
                            "title": "Temperature (F):",
                            "fieldHtmlClass": "",
                            "labelHtmlClass": "",
                            "sectionClass": "col-xs-3"
                        }]

                    }, {
                        "type": "section",
                        "htmlClass": "row middle-xs",
                        "items": [{
                            "type": "section",
                            "sectionClass": "col-xs-10",
                            "items": [{
                                "type": "section",
                                "htmlClass": "row",
                                "items": [{
                                    "key": "pulse",
                                    "title": "Pulse:",
                                    "type": "text",
                                    "htmlClass": "",
                                    "fieldHtmlClass": "",
                                    "labelHtmlClass": "",
                                    "sectionClass": "col-xs-3"
                                }, {

                                    "key": "bpSystolic",
                                    "title": "BP Systolic:",
                                    "htmlClass": "",
                                    "fieldHtmlClass": "",
                                    "labelHtmlClass": "",
                                    "sectionClass": "col-xs-3"
                                }, {

                                    "key": "bpDiastolic",
                                    "title": "BP Diastolic:",
                                    "htmlClass": "",
                                    "fieldHtmlClass": "",
                                    "labelHtmlClass": "",
                                    "sectionClass": "col-xs-3"
                                }]
                            }]
                        }]
                    }, {
                        "type": "section",
                        "htmlClass": "row middle-xs",
                        "items": [{
                            "type": "section",
                            "sectionClass": "col-xs-10",
                            "items": [{
                                "type": "section",
                                "htmlClass": "row",
                                "items": [{
                                    "key": "respiratoryRate",
                                    "title": "Respiratory Rate:",
                                    "type": "text",
                                    "htmlClass": "",
                                    "fieldHtmlClass": "",
                                    "labelHtmlClass": "",
                                    "sectionClass": "col-xs-3"
                                }, {
                                    "key": "headCircumference",
                                    "title": "Head Circumference:",
                                    "type": "text",
                                    "htmlClass": "",
                                    "fieldHtmlClass": "",
                                    "labelHtmlClass": "",
                                    "sectionClass": "col-xs-3"
                                }, {
                                    "key": "pulseOximetry",
                                    "title": "Pulse Oximetry:",
                                    "type": "text",
                                    "htmlClass": "",
                                    "fieldHtmlClass": "",
                                    "labelHtmlClass": "",
                                    "sectionClass": "col-xs-3"
                                }, {
                                    "key": "painLevel",
                                    "title": "Pain Level:",
                                    "type": "select",
                                    "placeholder": "<- Select Pain Level ->",
                                    "htmlClass": "",
                                    "fieldHtmlClass": "",
                                    "labelHtmlClass": "",
                                    "sectionClass": "col-xs-3"
                                }]
                            }]
                        }]
                    }, {
                        "type": "section",
                        "htmlClass": "row middle-xs paddingTop20",
                        "items": [{
                            "type": "section",
                            "sectionClass": "col-xs-10",
                            "items": [{
                                "type": "section",
                                "htmlClass": "row",
                                "items": [{
                                    "fieldHtmlClass": "btnWidth",
                                    "type": "submit",
                                    "title": "Save",
                                    "style": "btn-default",
                                    "sectionClass": "col-xs-2"
                                }, {
                                    "fieldHtmlClass": "btnWidth",
                                    "type": "button",
                                    "title": "Cancel",
                                    "style": "btn-default",
                                    "onClick": "cancel()"
                                }]
                            }]
                        }]
                    }]
                }],
                "states": {
                    "onCancel": "patient.vitals.list",
                    "onSubmit": "patient.vitals.list"
                }
            },
            "fetch": {
                "metaBone": {
                    "objects": [{
                        "patientVital": ["*"]
                    }]
                },
                "dataBone": {
                    "painLevel": {
                        "type": "metaPainLevel"
                    },
                    "heightUnit": {
                        "type": "metaHeightUnit"
                    },
                    "weightUnit": {
                        "type": "metaWeightUnit"
                    },
                    "temperatureUnit": {
                        "type": "metaTemperatureUnit"
                    },
                    "bpUnit": {
                        "type": "metaBloodPressureUnit"
                    },
                    "populate": {}
                }
            }
        }
    },
    "balls": [{
        "get": "patientVitalId",
        "set": ["widgets", "editVitalsForm", "fetch", "dataBone", "populate", "objectId"]
    }]
}
