{
    "name": "CCDAList",
    "CSSClass": "row bottom-xs",
    "widgets": {
        "header": {
            "type": "markup",
            "options": {
                "CSSClass": "col-xs",
                "markup": "### CCDA Export List"
            }
        },
        "rightButtons": {
            "type": "nav",
            "options": {
                "CSSClass": "col-xs-3",
                "cssClass": {
                    "btn btn-default pull-right": true
                },
                "type": "state",
                "state": "patient.ccdaexport.add",
                "text": "Add",
                "stateOptions": {
                    "inherit": true
                }
            }
        },
        "border": {
            "type": "markup",
            "options": {
                "CSSClass": "col-xs-12",
                "markup": "***"
            }
        },
        "exports": {
            "type": "gridBin",
            "CSSClasses": "col-xs-12",
            "options": {
                "messages": {
                    "noData": "No data available"
                },
                "noDelete": true,
                "viewBtn": false,
                "noEdit": true,
                "pagination": true,
                "showHeader": false,
                "columnDefs": [{
                    "field": "id",
                    "type": "widget",
                    "enableSorting": false,
                    "displayName": "",
                    "content": {
                        "CSSClass": "row",
                        "widgets": {
                            "row": {
                                "type": "markup",
                                "options": {
                                    "CSSClass": "col-xs-11 ccda-table",
                                    "markup": "|__Patient ID:__ [%rowData.patientId%] [class='ui-grid-cell-contents']|__Name:__ [%rowData.patientIdFirstName%] [%rowData.patientIdLastName%] [class='ui-grid-cell-contents'] |__DOB:__ [%rowData.patientIdDob%] [class='ui-grid-cell-contents']|\n|---|---|---|\n|__Receiver Address:__ [%rowData.recieverDirectAddress%] [class='ui-grid-cell-contents']|__Created on:__ [%rowData.createdOnDate%] [%rowData.createdOnTime%] [class='ui-grid-cell-contents']| __Status:__ [%rowData.statusValue%] [class='ui-grid-cell-contents'] |\n|__Document Type:__ [%rowData.careContinuityDocumentTypeValue%] [class='ui-grid-cell-contents'] |__Clinical Document Type:__ [%rowData.clinicalDocumentTypeValue%] [class='ui-grid-cell-contents']|__Encounter:__ [%rowData.patientEncounterId%] [class='ui-grid-cell-contents'] |\n| __Checksum:__ [%rowData.ccdaExportChecksum%] [colspan='3'] [class='ui-grid-cell-contents'] |\n",
                                    "markupNoData": "Loading...."
                                },
                                "fetch": {
                                    "dataBone": {
                                        "rowData": {}
                                    }
                                }
                            },
                            "buttons": {
                                "type": "nav",
                                "options": {
                                    "type": "list",
                                    "ulClass": {
                                        "action-buttons": true
                                    },
                                    "items": [{
                                        "type": "state",
                                        "state": "patient.ccdaexport.view",
                                        "cssClass": "{'font-20': true}",
                                        "icon": "{'fa fa-th-large': true}",
                                        "stateParams": {},
                                        "tooltip": "View File"
                                    },{
                                        "type": "link",
                                        "icon": "{'fa fa-download': true}",
                                        "linkClass": "font-20",
                                        "tooltip": "Download HTML"
                                    },{
                                        "type": "link",
                                        "icon": "{'fa fa-download': true}",
                                        "linkClass": "font-20 color-black",
                                        "tooltip": "Download XML"
                                    }]
                                }
                            }
                        },
                        "miniFrisbee": [{
                            "get": ["id"],
                            "set": ["widgets", "buttons", "options", "items", 0, "stateParams", "ccdaExportId"]
                        },{
                            "get": ["downloadHtmlUrl"],
                            "set": ["widgets", "buttons", "options", "items", 1, "link"]
                        },{
                            "get": ["downloadXmlUrl"],
                            "set": ["widgets", "buttons", "options", "items", 2, "link"]
                        }]
                    },
                    "repeat": {
                        "grid": "rowData"
                    }
                }]
            },
            "fetch": {
                "dataBone": {
                    "grid": {
                        "type": "ccdaExport",
                        "sorting": {
                            "createdOnDate": "DESC",
                            "createdOnTime": "DESC"
                        }
                    }
                }
            }
        }
    },
    "balls": [{
        "get": "patientId",
        "set": ["widgets", "exports", "fetch", "dataBone", "grid", "objectId"]
    }]
}