{
    "name": "TreatmentPlan",
    "widgets": {
        "heading": {
            "type": "markup",
            "options": {
                "markup": "### Treatment Plan \n ***"
            }
        },

        "createForm": {
            "type": "forms",
            "operation": "create",
            "srekram": [{
                "id": "txPlanConfig",
                "model": ["$temp", "configData"],
                "form": ["$temp", "configData"],
                "value": ["txPlanLevelConfig"]
            }, {
                "id": "txPlanConfig",
                "model": ["$temp", "isProgramSpecific"],
                "form": ["$temp", "isProgramSpecific"],
                "value": ["isProgramSpecific"]
            }, {
                "id": "txPlanConfig",
                "model": ["txPlanConfigId"],
                "form": ["txPlanConfigId"],
                "value": ["id"]
            }, {
                "id": "txPlanConfig",
                "model": ["program"],
                "form": ["program"],
                "value": ["programId"]
            }, {
                "id": "txPlanConfig",
                "model": ["$temp", "head"],
                "form": ["$temp", "head"],
                "value": ["txPlanLevelConfig", 0, "levelLabel"]
            }, {
                "id": "txPlanConfig",
                "model": ["$temp", "head1"],
                "form": ["$temp", "head1"],
                "value": ["txPlanLevelConfig", 1, "levelLabel"]
            }, {
                "id": "txPlanConfig",
                "model": ["$temp", "head2"],
                "form": ["$temp", "head2"],
                "value": ["txPlanLevelConfig", 2, "levelLabel"]
            }, {
                "id": "txPlanConfig",
                "model": ["$temp", "head3"],
                "form": ["$temp", "head3"],
                "value": ["txPlanLevelConfig", 3, "levelLabel"]
            }, {
                "id": "txPlanConfig",
                "model": ["$temp", "levelOne"],
                "form": ["$temp", "levelOne"],
                "value": ["txPlanLevelConfig", 0]
            }, {
                "id": "txPlanConfig",
                "model": ["$temp", "levelTwo"],
                "form": ["$temp", "levelTwo"],
                "value": ["txPlanLevelConfig", 1]
            }, {
                "id": "txPlanConfig",
                "model": ["$temp", "levelThree"],
                "form": ["$temp", "levelThree"],
                "value": ["txPlanLevelConfig", 2]
            }, {
                "id": "txPlanConfig",
                "model": ["$temp", "levelFour"],
                "form": ["$temp", "levelFour"],
                "value": ["txPlanLevelConfig", 3]
            }],
            "options": {
                "clearOnLoad": true,
                "formClass": "fieldset white-bg",
                "form": [{
                    "type": "section",
                    "htmlClass": "row",
                    "items": [{
                        "type": "section",
                        "htmlClass": "row",
                        "sectionClass": "col-xs-12 scheduler-border fieldset",
                        "items": [{
                            "type": "section",
                            "htmlClass": "row",
                            "sectionClass": "col-xs-3",
                            "items": [{
                                "name": "progSelect",
                                "type": "widget",
                                "key": "program",
                                "title": "Select Program",
                                "collapsible": false,
                                "content": {
                                    "name": "planSelect",
                                    "CSSClasses": "row no-margin",
                                    "widgets": {
                                        "configGrid": {
                                            "type": "gridBin",
                                            "options": {
                                                "noDelete": true,
                                                "noEdit": true,
                                                "enableRowSelection": true,
                                                "clearOnLoad": false,
                                                "rekram": "txPlanConfig",
                                                "markerObject": "txPlanConfig",
                                                "marker": "treatconfigfilter",
                                                "columnDefs": [{
                                                    "field": "programId",
                                                    "width": "100%"
                                                }],
                                                "states": {}
                                            },
                                            "fetch": {
                                                "dataBone": {
                                                    "grid": {
                                                        "type": "txPlanConfig",
                                                        "child": [{
                                                            "type": "txPlanLevelConfig"
                                                        }],
                                                        "conditions": [{
                                                            "programId": {
                                                                "ISNOTNULL": []
                                                            }
                                                        }]
                                                    }
                                                }
                                            }
                                        }
                                    }
                                }
                            }]
                        }, {
                            "key": "program",
                            "type": "select",
                            "sectionClass": "hide"
                        }, {
                            "key": "planType",
                            "type": "select",
                            "sectionClass": "col-xs-3"
                        }, {
                            "key": "effectiveDate",
                            "type": "datepicker",
                            "sectionClass": "col-xs-3"
                        }, {
                            "key": "endDate",
                            "type": "datepicker",
                            "sectionClass": "col-xs-3"
                        }, {
                            "key": "title",
                            "sectionClass": "col-xs-3"
                        }, {
                            "key": "targetDate",
                            "type": "datepicker",
                            "sectionClass": "col-xs-3"
                        }, {
                            "key": "txPlanConfigId",
                            "type": "select",
                            "sectionClass": "hide"
                        }, {
                            "key": "lastUpdatedDate",
                            "type": "datepicker",
                            "sectionClass": "col-xs-3"
                        }, {
                            "key": "lastDocumentDate",
                            "type": "datepicker",
                            "sectionClass": "col-xs-3"
                        }, {
                            "key": "diagnosisCode",
                            "title": "Problem Code",
                            "type": "multicheck",
                            "sectionClass": "col-xs-3"
                        }, {
                            "key": "status",
                            "type": "select",
                            "sectionClass": "col-xs-3"
                        }]
                    }, {
                        "type": "section",
                        "htmlClass": "row",
                        "sectionClass": "col-xs-12 scheduler-border fieldset",
                        "items": [{
                            "key": "functionalStatusName",
                            "sectionClass": "col-xs-3",
                            "title": "Functional Status Name"
                        }, {
                            "key": "functionalStatusStartDate",
                            "sectionClass": "col-xs-3",
                            "type": "datepicker",
                            "title": "Functional Status Date"
                        }, {
                            "key": "functionalStatusStatus",
                            "title": "Functional Status",
                            "type": "select",
                            "sectionClass": "col-xs-3"
                        }, {
                            "key": "functionalStatusSnomedCode",
                            "title": "Functional Status Snomed Code",
                            "sectionClass": "col-xs-3"
                        }]
                    }, {
                        "type": "section",
                        "htmlClass": "row",
                        "sectionClass": "col-xs-12 scheduler-border fieldset",
                        "items": [{
                            "key": "cognitiveStatusName",
                            "title": "Cognitive Status Name",
                            "sectionClass": "col-xs-3"
                        }, {
                            "key": "cognitiveStatusStartDate",
                            "type": "datepicker",

                            "title": "Cognitive Status Date",
                            "sectionClass": "col-xs-3"
                        }, {
                            "key": "cognitiveStatusStatus",
                            "title": "Cognitive Status",
                            "type": "select",
                            "sectionClass": "col-xs-3"
                        }, {
                            "key": "cognitiveStatusSnomedCode",
                            "title": "Cognitive Status Snomed Code",
                            "sectionClass": "col-xs-3"
                        }]
                    }, {
                        "condition": "model.$temp.configData[0].levelOrder ===\"metaTxLevelOrder:1\" ",
                        "key": "patientTxPlanLevel",
                        "btnModel": "head",
                        "title": "",
                        "sectionClass": "col-xs-12",
                        "style": {
                            "add": "btn-default"
                        },
                        "items": [{
                            "type": "section",
                            "htmlClass": "row",
                            "sectionClass": "col-xs-12",
                            "items": [{
                                "key": "$temp.head",
                                "type": "text",
                                "readonly": true,
                                "sectionClass": "col-xs-12 font-26"
                            }, {
                                "condition": "model.$temp.configData[0].showProgram && !(model.$temp.isProgramSpecific)",
                                "key": "patientTxPlanLevel[].program",
                                "type": "select",
                                "sectionClass": "col-xs-3"
                            }, {
                                "condition": "model.$temp.configData[0].showEndDate",
                                "type": "datepicker",
                                "key": "patientTxPlanLevel[].endDate",
                                "sectionClass": "col-xs-3"
                            }, {
                                "key": "patientTxPlanLevel[].title",
                                "sectionClass": "col-xs-3"
                            }, {
                                "key": "patientTxPlanLevel[].statement",
                                "sectionClass": "col-xs-3",
                                "type": "textarea"
                            }, {
                                "condition": "model.$temp.configData[0].levelLabel.toLowerCase() ===\"goal\" ",
                                "key": "patientTxPlanLevel[].instructions",
                                "title": "Instructions",
                                "type": "textarea",
                                "sectionClass": "col-xs-3",
                                "htmlClass": "row",
                                "fieldHtmlClass": "col-xs-12",
                                "rows": 3
                            }, {
                                "condition": "model.$temp.configData[0].levelLabel.toLowerCase() ===\"goal\" ",
                                "key": "patientTxPlanLevel[].snomedCode",
                                "title": "Snomed Code",
                                "sectionClass": "col-xs-3"
                            }, {
                                "condition": "model.$temp.configData[0].showEffectiveDate",
                                "key": "patientTxPlanLevel[].effectiveDate",
                                "type": "datepicker",
                                "sectionClass": "col-xs-3",
                                "labelClass": ""
                            }, {
                                "condition": "model.$temp.configData[0].showTargetDate ",
                                "type": "datepicker",
                                "key": "patientTxPlanLevel[].targetDate",
                                "sectionClass": "col-xs-3"
                            }, {
                                "condition": "model.$temp.configData[0].showPriority",
                                "key": "patientTxPlanLevel[].priority",
                                "type": "select",
                                "sectionClass": "col-xs-3"
                            }, {
                                "condition": "model.$temp.configData[0].showAssociatedDiagnosis",
                                "key": "patientTxPlanLevel[].diagnosisCode",
                                "title": "Problem Code",
                                "type": "multicheck",
                                "sectionClass": "col-xs-3"
                            }, {
                                "condition": "model.$temp.configData[0].showAssessedNeed",
                                "key": "patientTxPlanLevel[].assessedNeed",
                                "sectionClass": "col-xs-3"
                            }, {
                                "condition": "model.$temp.configData[0].showDesiredOutcome",
                                "key": "patientTxPlanLevel[].desiredOutcome",
                                "sectionClass": "col-xs-3"
                            }, {
                                "key": "patientTxPlanLevel[].levelOrder",
                                "sectionClass": "hide",
                                "type": "phantom",
                                "calculationFormula": "almightyModel.$temp.levelOne.levelOrder",
                                "prePopulate": true
                            }, {
                                "condition": "model.$temp.configData[0].showScore",
                                "key": "patientTxPlanLevel[].score",
                                "sectionClass": "col-xs-3"
                            }, {
                                "condition": "model.$temp.configData[0].showAsEvidencedBy",
                                "key": "patientTxPlanLevel[].asEvidencedBy",
                                "sectionClass": "col-xs-3"
                            }, {
                                "condition": "model.$temp.configData[0].showModality",
                                "key": "patientTxPlanLevel[].modality",
                                "sectionClass": "col-xs-3"
                            }, {
                                "condition": "model.$temp.configData[0].showFrequency",
                                "key": "patientTxPlanLevel[].frequency",
                                "sectionClass": "col-xs-3"
                            }, {
                                "condition": "model.$temp.configData[0].showProgress",
                                "key": "patientTxPlanLevel[].progress",
                                "sectionClass": "col-xs-3"
                            }, {
                                "condition": "model.$temp.configData[0].showDomain",
                                "key": "patientTxPlanLevel[].domain",
                                "sectionClass": "col-xs-3"
                            }]
                        }, {
                            "condition": "model.$temp.configData[1].levelOrder ===\"metaTxLevelOrder:2\" ",
                            "key": "patientTxPlanLevel[].patientTxPlanLevel",
                            "title": "",
                            "btnModel": "head1",

                            "add": "Add Tx plan level",
                            "sectionClass": "col-xs-12",
                            "htmlClass": "row",
                            "style": {
                                "add": "btn-default"
                            },

                            "items": [{
                                "key": "$temp.head1",
                                "readonly": true,
                                "type": "text",
                                "sectionClass": "col-xs-12 font-26"
                            }, {
                                "condition": "model.$temp.configData[1].showEndDate",
                                "type": "datepicker",
                                "key": "patientTxPlanLevel[].patientTxPlanLevel[].endDate",
                                "sectionClass": "col-xs-3"
                            }, {
                                "key": "patientTxPlanLevel[].patientTxPlanLevel[].title",
                                "sectionClass": "col-xs-3"
                            }, {
                                "key": "patientTxPlanLevel[].patientTxPlanLevel[].statement",
                                "sectionClass": "col-xs-3",
                                "type": "textarea"

                            }, {
                                "condition": "model.$temp.configData[1].levelLabel.toLowerCase() ===\"goal\" ",
                                "key": "patientTxPlanLevel[].patientTxPlanLevel[].instructions",
                                "title": "Instructions",
                                "type": "textarea",
                                "sectionClass": "col-xs-3",
                                "htmlClass": "row",
                                "fieldHtmlClass": "col-xs-12",
                                "rows": 3
                            }, {
                                "condition": "model.$temp.configData[1].levelLabel.toLowerCase() ===\"goal\" ",
                                "key": "patientTxPlanLevel[].patientTxPlanLevel[].snomedCode",
                                "title": "Snomed Code",
                                "sectionClass": "col-xs-3"
                            }, {
                                "condition": "model.$temp.configData[1].showEffectiveDate",
                                "key": "patientTxPlanLevel[].patientTxPlanLevel[].effectiveDate",
                                "type": "datepicker",
                                "labelClass": "",
                                "sectionClass": "col-xs-3"

                            }, {
                                "condition": "model.$temp.configData[1].showTargetDate ",
                                "type": "datepicker",
                                "key": "patientTxPlanLevel[].patientTxPlanLevel[].targetDate",
                                "sectionClass": "col-xs-3"
                            }, {
                                "condition": "model.$temp.configData[1].showPriority",
                                "key": "patientTxPlanLevel[].patientTxPlanLevel[].priority",
                                "type": "select",
                                "sectionClass": "col-xs-3"
                            }, {
                                "condition": "model.$temp.configData[1].showAssociatedDiagnosis",
                                "key": "patientTxPlanLevel[].patientTxPlanLevel[].diagnosisCode",
                                "type": "multicheck",
                                "title": "Problem Code",
                                "sectionClass": "col-xs-3"
                            }, {
                                "condition": "model.$temp.configData[1].showAssessedNeed",
                                "key": "patientTxPlanLevel[].patientTxPlanLevel[].assessedNeed",
                                "sectionClass": "col-xs-3"
                            }, {
                                "condition": "model.$temp.configData[1].showDesiredOutcome",
                                "key": "patientTxPlanLevel[].patientTxPlanLevel[].desiredOutcome",
                                "sectionClass": "col-xs-3"
                            }, {
                                "condition": "model.$temp.configData[1].levelOrder",
                                "key": "patientTxPlanLevel[].patientTxPlanLevel[].levelOrder",
                                "sectionClass": "hide",
                                "type": "phantom",
                                "calculationFormula": "almightyModel.$temp.levelTwo.levelOrder"
                            }, {
                                "condition": "model.$temp.configData[1].showScore",
                                "key": "patientTxPlanLevel[].patientTxPlanLevel[].score",
                                "sectionClass": "col-xs-3"
                            }, {

                                "condition": "model.$temp.configData[1].showAsEvidencedBy",
                                "key": "patientTxPlanLevel[].patientTxPlanLevel[].asEvidencedBy",
                                "sectionClass": "col-xs-3"
                            }, {
                                "condition": "model.$temp.configData[1].showModality",
                                "key": "patientTxPlanLevel[].patientTxPlanLevel[].modality",
                                "sectionClass": "col-xs-3"
                            }, {
                                "condition": "model.$temp.configData[1].showFrequency",
                                "key": "patientTxPlanLevel[].patientTxPlanLevel[].frequency",
                                "sectionClass": "col-xs-3"
                            }, {
                                "condition": "model.$temp.configData[1].showProgress",
                                "key": "patientTxPlanLevel[].patientTxPlanLevel[].progress",
                                "sectionClass": "col-xs-3"
                            }, {
                                "condition": "model.$temp.configData[1].showDomain",
                                "key": "patientTxPlanLevel[].domain",
                                "sectionClass": "col-xs-3"
                            }, {
                                "condition": "model.$temp.configData[2].levelOrder ===\"metaTxLevelOrder:3\"",
                                "key": "patientTxPlanLevel[].patientTxPlanLevel[].patientTxPlanLevel",
                                "add": "Add Tx plan level",
                                "title": "",
                                "btnModel": "head2",

                                "htmlClass": "row",
                                "sectionClass": " col-xs-12",
                                "style": {
                                    "add": "btn-default"
                                },

                                "items": [{
                                    "key": "$temp.head2",
                                    "readonly": true,
                                    "type": "text",
                                    "sectionClass": "col-xs-12 font-26"
                                }, {
                                    "condition": "model.$temp.configData[2].showEndDate",
                                    "type": "datepicker",
                                    "key": "patientTxPlanLevel[].patientTxPlanLevel[].patientTxPlanLevel[].endDate",
                                    "sectionClass": "col-xs-3"
                                }, {
                                    "key": "patientTxPlanLevel[].patientTxPlanLevel[].patientTxPlanLevel[].title",
                                    "sectionClass": "col-xs-3"
                                }, {
                                    "key": "patientTxPlanLevel[].patientTxPlanLevel[].patientTxPlanLevel[].statement",
                                    "sectionClass": "col-xs-3",
                                    "type": "textarea"

                                }, {
                                    "condition": "model.$temp.configData[2].levelLabel.toLowerCase() ===\"goal\" ",
                                    "key": "patientTxPlanLevel[].patientTxPlanLevel[].patientTxPlanLevel[].instructions",
                                    "title": "Instructions",
                                    "type": "textarea",
                                    "sectionClass": "col-xs-3",
                                    "htmlClass": "row",
                                    "fieldHtmlClass": "col-xs-12",
                                    "rows": 3
                                }, {
                                    "condition": "model.$temp.configData[2].levelLabel.toLowerCase() ===\"goal\" ",
                                    "key": "patientTxPlanLevel[].patientTxPlanLevel[].patientTxPlanLevel[].snomedCode",
                                    "title": "Snomed Code",
                                    "sectionClass": "col-xs-3"
                                }, {
                                    "condition": "model.$temp.configData[2].showEffectiveDate",
                                    "key": "patientTxPlanLevel[].patientTxPlanLevel[].patientTxPlanLevel[].effectiveDate",
                                    "type": "datepicker",
                                    "sectionClass": "col-xs-3",
                                    "labelClass": ""
                                }, {
                                    "condition": "model.$temp.configData[2].showTargetDate ",
                                    "type": "datepicker",
                                    "key": "patientTxPlanLevel[].patientTxPlanLevel[].patientTxPlanLevel[].targetDate",
                                    "sectionClass": "col-xs-3"
                                }, {
                                    "condition": "model.$temp.configData[2].showPriority",
                                    "key": "patientTxPlanLevel[].patientTxPlanLevel[].patientTxPlanLevel[].priority",
                                    "type": "select",
                                    "sectionClass": "col-xs-3"
                                }, {
                                    "condition": "model.$temp.configData[2].showAssociatedDiagnosis",
                                    "key": "patientTxPlanLevel[].patientTxPlanLevel[].patientTxPlanLevel[].diagnosisCode",
                                    "title": "Problem Code",
                                    "type": "multicheck",
                                    "sectionClass": "col-xs-3"
                                }, {
                                    "condition": "model.$temp.configData[2].showAssessedNeed",
                                    "key": "patientTxPlanLevel[].patientTxPlanLevel[].patientTxPlanLevel[].assessedNeed",
                                    "sectionClass": "col-xs-3"
                                }, {
                                    "condition": "model.$temp.configData[2].showDesiredOutcome",
                                    "key": "patientTxPlanLevel[].patientTxPlanLevel[].patientTxPlanLevel[].desiredOutcome",
                                    "sectionClass": "col-xs-3"
                                }, {
                                    "condition": "model.$temp.configData[2].levelOrder",
                                    "key": "patientTxPlanLevel[].patientTxPlanLevel[].patientTxPlanLevel[].levelOrder",
                                    "sectionClass": "hide",
                                    "type": "phantom",
                                    "calculationFormula": "almightyModel.$temp.levelThree.levelOrder"
                                }, {
                                    "condition": "model.$temp.configData[2].showScore",
                                    "key": "patientTxPlanLevel[].patientTxPlanLevel[].patientTxPlanLevel[].score",
                                    "sectionClass": "col-xs-3"
                                }, {

                                    "condition": "model.$temp.configData[2].showAsEvidencedBy",
                                    "key": "patientTxPlanLevel[].patientTxPlanLevel[].patientTxPlanLevel[].asEvidencedBy",
                                    "sectionClass": "col-xs-3"
                                }, {
                                    "condition": "model.$temp.configData[2].showModality",
                                    "key": "patientTxPlanLevel[].patientTxPlanLevel[].patientTxPlanLevel[].modality",
                                    "sectionClass": "col-xs-3"
                                }, {
                                    "condition": "model.$temp.configData[2].showFrequency",
                                    "key": "patientTxPlanLevel[].patientTxPlanLevel[].patientTxPlanLevel[].frequency",
                                    "sectionClass": "col-xs-3"
                                }, {
                                    "condition": "model.$temp.configData[2].showProgress",
                                    "key": "patientTxPlanLevel[].patientTxPlanLevel[].patientTxPlanLevel[].progress",
                                    "sectionClass": "col-xs-3"
                                }, {
                                    "condition": "model.$temp.configData[2].showDomain",
                                    "key": "patientTxPlanLevel[].domain",
                                    "sectionClass": "col-xs-3"
                                }, {
                                    "condition": "model.$temp.configData[3].levelOrder ===\"metaTxLevelOrder:4\" ",
                                    "key": "patientTxPlanLevel[].patientTxPlanLevel[].patientTxPlanLevel[].patientTxPlanLevel",
                                    "add": "Add Tx plan level",
                                    "title": "",
                                    "htmlClass": "row",
                                    "btnModel": "head3",

                                    "sectionClass": "col-xs-12",
                                    "style": {
                                        "add": "btn-default"
                                    },

                                    "items": [{
                                        "readonly": true,
                                        "key": "$temp.head3",
                                        "type": "text",
                                        "sectionClass": "col-xs-12 font-26"
                                    }, {
                                        "condition": "model.$temp.configData[3].showEndDate",
                                        "type": "datepicker",
                                        "key": "patientTxPlanLevel[].patientTxPlanLevel[].patientTxPlanLevel[].patientTxPlanLevel[].endDate",
                                        "sectionClass": "col-xs-3"
                                    }, {
                                        "key": "patientTxPlanLevel[].patientTxPlanLevel[].patientTxPlanLevel[].patientTxPlanLevel[].title",
                                        "sectionClass": "col-xs-3"
                                    }, {
                                        "key": "patientTxPlanLevel[].patientTxPlanLevel[].patientTxPlanLevel[].patientTxPlanLevel[].statement",
                                        "sectionClass": "col-xs-3",
                                        "type": "textarea"

                                    }, {
                                        "condition": "model.$temp.configData[3].levelLabel.toLowerCase() ===\"goal\" ",
                                        "key": "patientTxPlanLevel[].patientTxPlanLevel[].patientTxPlanLevel[].patientTxPlanLevel[].instructions",
                                        "title": "Instructions",
                                        "type": "textarea",
                                        "sectionClass": "col-xs-3",
                                        "htmlClass": "row",
                                        "fieldHtmlClass": "col-xs-12",
                                        "rows": 3
                                    }, {
                                        "condition": "model.$temp.configData[3].levelLabel.toLowerCase() ===\"goal\" ",
                                        "key": "patientTxPlanLevel[].patientTxPlanLevel[].patientTxPlanLevel[].patientTxPlanLevel[].snomedCode",
                                        "title": "Snomed Code",
                                        "sectionClass": "col-xs-3"
                                    }, {
                                        "condition": "model.$temp.configData[3].showEffectiveDate",
                                        "key": "patientTxPlanLevel[].patientTxPlanLevel[].patientTxPlanLevel[].patientTxPlanLevel[].effectiveDate",
                                        "type": "datepicker",
                                        "labelClass": ""
                                    }, {
                                        "condition": "model.$temp.configData[3].showTargetDate ",
                                        "type": "datepicker",
                                        "key": "patientTxPlanLevel[].patientTxPlanLevel[].patientTxPlanLevel[].patientTxPlanLevel[].targetDate",
                                        "sectionClass": "col-xs-3"
                                    }, {
                                        "condition": "model.$temp.configData[3].showPriority",
                                        "key": "patientTxPlanLevel[].patientTxPlanLevel[].patientTxPlanLevel[].patientTxPlanLevel[].priority",
                                        "type": "select",
                                        "sectionClass": "col-xs-3"
                                    }, {
                                        "condition": "model.$temp.configData[3].showAssociatedDiagnosis",
                                        "key": "patientTxPlanLevel[].patientTxPlanLevel[].patientTxPlanLevel[].patientTxPlanLevel[].diagnosisCode",
                                        "title": "Problem Code",
                                        "type": "multicheck",
                                        "sectionClass": "col-xs-3"
                                    }, {
                                        "condition": "model.$temp.configData[3].showAssessedNeed",
                                        "key": "patientTxPlanLevel[].patientTxPlanLevel[].patientTxPlanLevel[].patientTxPlanLevel[].assessedNeed",
                                        "sectionClass": "col-xs-3"
                                    }, {
                                        "condition": "model.$temp.configData[3].showDesiredOutcome",
                                        "key": "patientTxPlanLevel[].patientTxPlanLevel[].patientTxPlanLevel[].patientTxPlanLevel[].desiredOutcome",
                                        "sectionClass": "col-xs-3"
                                    }, {
                                        "condition": "model.$temp.configData[3].levelOrder",
                                        "key": "patientTxPlanLevel[].patientTxPlanLevel[].patientTxPlanLevel[].patientTxPlanLevel[].levelOrder",
                                        "sectionClass": "hide",
                                        "type": "phantom",
                                        "calculationFormula": "almightyModel.$temp.levelFour.levelOrder"
                                    }, {
                                        "condition": "model.$temp.configData[3].showScore",
                                        "key": "patientTxPlanLevel[].patientTxPlanLevel[].patientTxPlanLevel[].patientTxPlanLevel[].score",
                                        "sectionClass": "col-xs-3"
                                    }, {

                                        "condition": "model.$temp.configData[3].showAsEvidencedBy",
                                        "key": "patientTxPlanLevel[].patientTxPlanLevel[].patientTxPlanLevel[].patientTxPlanLevel[].asEvidencedBy",
                                        "sectionClass": "col-xs-3"
                                    }, {
                                        "condition": "model.$temp.configData[3].showModality",
                                        "key": "patientTxPlanLevel[].patientTxPlanLevel[].patientTxPlanLevel[].patientTxPlanLevel[].modality",
                                        "sectionClass": "col-xs-3"
                                    }, {
                                        "condition": "model.$temp.configData[3].showFrequency",
                                        "key": "patientTxPlanLevel[].patientTxPlanLevel[].patientTxPlanLevel[].patientTxPlanLevel[].frequency",
                                        "sectionClass": "col-xs-3"
                                    }, {
                                        "condition": "model.$temp.configData[3].showProgress",
                                        "key": "patientTxPlanLevel[].patientTxPlanLevel[].patientTxPlanLevel[].patientTxPlanLevel[].progress",
                                        "sectionClass": "col-xs-3"
                                    }, {
                                        "condition": "model.$temp.configData[3].showDomain",
                                        "key": "patientTxPlanLevel[].domain",
                                        "sectionClass": "col-xs-3"
                                    }]
                                }]
                            }]
                        }]
                    }, {
                        "type": "section",
                        "htmlClass": "row",
                        "sectionClass": "col-xs-12",
                        "items": [{
                            "fieldHtmlClass": "btnWidth",
                            "type": "submit",
                            "title": "Save",
                            "style": "btn-default"
                        }, {
                            "fieldHtmlClass": "btnWidth",
                            "type": "button",
                            "title": "Cancel",
                            "onClick": "cancel()",
                            "style": "btn-default"
                        }]
                    }]
                }],
                "states": {
                    "onSubmit": "patient.txplan.list",
                    "onCancel": "patient.txplan.list"
                },
                "messages": {
                    "cancelConfirm": "Are you sure you want to exit without saving changes?",
                    "deleteConfirm": "Are you sure you want to delete this item?"

                }

            },

            "fetch": {
                "metaBone": {
                    "objects": [{
                        "patientTxPlan": ["*", {
                            "patientTxPlanLevel": ["*", {
                                "patientTxPlanLevel": ["*", {
                                    "patientTxPlanLevel": ["*", {
                                        "patientTxPlanLevel": ["*"]
                                    }]
                                }]
                            }]
                        }]
                    }]
                },
                "dataBone": {
                    "txPlanConfigId": {
                        "type": "txPlanConfig",
                        "child": [{
                            "type": "txPlanLevelConfig"
                        }]
                    },
                    "program": {
                        "type": "organizationDivisionProgram"
                    },
                    "functionalStatusStatus": {
                        "type": "metaFunctionalStatus"
                    },
                    "cognitiveStatusStatus": {
                        "type": "metaCognitiveStatus"
                    },
                    "status": {
                        "type": "metaTxPlanStatus"
                    },
                    "planType": {
                        "type": "metaTxPlanType"
                    },
                    "patientTxPlanLevel[].priority": {
                        "type": "metaTxPriority"
                    },
                    "patientTxPlanLevel[].patientTxPlanLevel[].priority": {
                        "type": "metaTxPriority"
                    },
                    "patientTxPlanLevel[].patientTxPlanLevel[].patientTxPlanLevel[].priority": {
                        "type": "metaTxPriority"
                    },
                    "patientTxPlanLevel[].patientTxPlanLevel[].patientTxPlanLevel[].patientTxPlanLevel[].priority": {
                        "type": "metaTxPriority"
                    },
                    "patientTxPlanLevel[].diagnosisCode": {
                        "type": "patientDiagnosis"
                    },
                    "patientTxPlanLevel[].patientTxPlanLevel[].diagnosisCode": {
                        "type": "patientDiagnosis"
                    },
                    "patientTxPlanLevel[].patientTxPlanLevel[].patientTxPlanLevel[].diagnosisCode": {
                        "type": "patientDiagnosis"
                    },
                    "patientTxPlanLevel[].patientTxPlanLevel[].patientTxPlanLevel[].patientTxPlanLevel[].diagnosisCode": {
                        "type": "patientDiagnosis"
                    },
                    "diagnosisCode": {
                        "type": "patientDiagnosis"
                    }
                }
            }
        }
    },
    "balls": [{
        "get": "patientId",
        "set": ["widgets", "createForm", "options", "parent"]
    }, {
        "get": "patientId",
        "set": ["widgets", "createForm", "fetch", "dataBone", "diagnosisCode", "conditions", "0", "patientId"]
    }, {
        "get": "patientId",
        "set": ["widgets", "createForm", "fetch", "dataBone", "patientTxPlanLevel[].diagnosisCode", "conditions", "0", "patientId"]
    }, {
        "get": "patientId",
        "set": ["widgets", "createForm", "fetch", "dataBone", "patientTxPlanLevel[].patientTxPlanLevel[].diagnosisCode", "conditions", "0", "patientId"]
    }, {
        "get": "patientId",
        "set": ["widgets", "createForm", "fetch", "dataBone", "patientTxPlanLevel[].patientTxPlanLevel[].patientTxPlanLevel[].diagnosisCode", "conditions", "0", "patientId"]
    }, {
        "get": "patientId",
        "set": ["widgets", "createForm", "fetch", "dataBone", "patientTxPlanLevel[].patientTxPlanLevel[].patientTxPlanLevel[].patientTxPlanLevel[].diagnosisCode", "conditions", "0", "patientId"]
    }]
}
