{
    "name": "notesEdit",
    "widgets": {
        "headings": {
            "type": "markup",
            "options": {
                "markup": "### Encounter Notes###"
            }
        },
        "border": {
            "type": "markup",
            "options": {
                "CSSClass": "col-xs-12",
                "markup": "***"
            }
        },
        "notesForm": {
            "operation": "update",
            "type": "forms",
            "options": {
                "view": true,
                "readonly": true,
                "formClass": "fieldset white-bg",
                "CSSClasses": "",
                "form": [{
                    "type": "section",
                    "htmlClass": "row",
                    "items": [{
                        "key": "isSuicideRiskAssessment",
                        "title": "Suicide Risk Assessment Performed",
                        "type": "checkbox",
                        "htmlClass": "",
                        "fieldHtmlClass": "",
                        "labelHtmlClass": "",
                        "sectionClass": "col-xs-12"
                    }, {
                        "key": "isBMIFollowupPlan",
                        "title": "BMI Followup Plan Documented",
                        "type": "checkbox",
                        "htmlClass": "",
                        "fieldHtmlClass": "",
                        "labelHtmlClass": "",
                        "sectionClass": "col-xs-12"
                    },  {
                        "key": "medicationsReconciled",
                        "title": "All of the patient's current medications have been documented (above/below) using all immediate resources, including prescriptions, over-the-counters, herbals, and vitamin/mineral/dietary (nutritional) supplements.",
                        "type": "checkbox",
                        "htmlClass": "",
                        "lableClass": "",
                        "sectionClass": "col-xs-6"
                    }, {
                        "key": "medicationReconciliationExceptionReason",
                        "title": "Medications Reconciliation Exception Reason",
                        "type": "select",
                        "condition": "!model.medicationsReconciled",
                        "htmlClass": "",
                        "lableClass": "",
                        "sectionClass": "col-xs-6"
                    }, {
                        "key": "isFallRiskAssessment",
                        "title": "Fall Risk Assessment Performed",
                        "type": "checkbox",
                        "htmlClass": "",
                        "lableClass": "",
                        "sectionClass": "col-xs-6"
                    }, {
                        "key": "fallRiskScreeningExceptionReason",
                        "title": "Fall Risk Screening Exception Reason",
                        "type": "select",
                        "condition": "!model.isFallRiskAssessment",
                        "htmlClass": "",
                        "lableClass": "",
                        "sectionClass": "col-xs-6"
                    }, {
                        "key": "isCognitiveAssessment",
                        "title": "Cognitive Risk Assessment Performed",
                        "type": "checkbox",
                        "htmlClass": "",
                        "lableClass": "",
                        "sectionClass": "col-xs-6"
                    }, {
                        "key": "cognitiveRiskAssessmentExceptionReason",
                        "title": "Cognitive Risk Assessment Exception Reason",
                        "type": "select",
                        "condition": "!model.isCognitiveAssessment",
                        "htmlClass": "",
                        "lableClass": "",
                        "sectionClass": "col-xs-6"
                    }, {
                        "key": "isTobaccoCessationPlan",
                        "title": "Tobacco Screening Performed",
                        "type": "checkbox",
                        "htmlClass": "",
                        "lableClass": "",
                        "sectionClass": "col-xs-6"
                    }, {
                        "key": "tobaccoScreeningExceptionReason",
                        "title": "Tobacco Screening Exception Reason",
                        "type": "select",
                        "condition": "!model.isTobaccoCessationPlan",
                        "htmlClass": "",
                        "lableClass": "",
                        "sectionClass": "col-xs-6"
                    }, {
                        "key": "isDepressionScreening",
                        "title": "Depression Screening Performed",
                        "type": "checkbox",
                        "htmlClass": "",
                        "lableClass": "",
                        "sectionClass": "col-xs-6"
                    }, {
                        "key": "depressionScreeningExceptionReason",
                        "title": "Depression Screening Exception Reason",
                        "type": "select",
                        "condition": "!model.isDepressionScreening",
                        "htmlClass": "",
                        "lableClass": "",
                        "sectionClass": "col-xs-6"
                    }, {
                        "key": "hasDepressionSymptoms",
                        "title": "Depression Screening Positive",
                        "type": "checkbox",
                        "condition": "model.isDepressionScreening",
                        "htmlClass": "",
                        "lableClass": "",
                        "sectionClass": "col-xs-6"
                    }, {
                        "key": "isDepressionFollowupPlanDocumented",
                        "title": "Depression Followup Plan Documented",
                        "type": "checkbox",
                        "condition": "model.hasDepressionSymptoms",
                        "htmlClass": "",
                        "lableClass": "",
                        "sectionClass": "col-xs-6"
                    }, {
                        "key": "isPhq9TestPerformed",
                        "title": "PHQ9 Test Performed",
                        "type": "checkbox",
                        "htmlClass": "",
                        "lableClass": "",
                        "sectionClass": "col-xs-12"
                    }, {
                        "key": "isBimsAssessmentPerformed",
                        "title": "BIMS Assessment Performed",
                        "type": "checkbox",
                        "htmlClass": "",
                        "lableClass": "",
                        "sectionClass": "col-xs-12"
                    }, {
                        "key": "notes",
                        "title": "Notes",
                        "type": "textarea",
                        "sectionClass": "col-xs-12",
                        "htmlClass": "row",
                        "fieldHtmlClass": "col-xs-12",
                        "rows": 5
                    },{
                        "key": "decisionAid",
                        "type": "textarea",
                        "title": "Decision Aid",
                        "sectionClass": "col-xs-12",
                        "htmlClass": "row",
                        "fieldHtmlClass": "col-xs-12",
                        "rows": 5
                    }, {
                        "type": "section",
                        "sectionClass": "col-xs-12",
                        "items": [{
                            "type": "section",
                            "htmlClass": "fieldset  end-xs",
                            "items": [{
                                "type": "section",
                                "htmlClass": "row end-xs",
                                "items": [{
                                    "fieldHtmlClass": "btnWidth",
                                    "type": "submit",
                                    "title": "Save",
                                    "style": "btn-default"
                                }]
                            }]
                        }]
                    }]
                }],
                "states": {},
                "messages": {}
            },
            "fetch": {
                "metaBone": {
                    "objects": [{
                        "patientEncounter": ["*"]
                    }]
                },
                "dataBone": {
                    "medicationReconciliationExceptionReason": {
                        "type": "metaMedicationReconciliationExceptionReason"
                    },
                    "fallRiskScreeningExceptionReason": {
                        "type": "metaFallRiskScreeningExceptionReason"
                    },
                    "cognitiveRiskAssessmentExceptionReason": {
                        "type": "metaCognitiveRiskAssessmentExceptionReason"
                    },
                    "tobaccoScreeningExceptionReason": {
                        "type": "metaTobaccoScreeningExceptionReason"
                    },
                    "depressionScreeningExceptionReason": {
                        "type": "metaDepressionScreeningExceptionReason"
                    },
                    "populate": {}
                }
            }
        }
    },
    "balls": [{
        "get": "patientId",
        "set": ["widgets", "notesForm", "options", "parent"]
    }, {
        "get": "patientEncounterId",
        "set": ["widgets", "notesForm", "fetch", "dataBone", "populate", "objectId"]
    }]
}
