{
    "name": "qrdaExport",
    "CSSClass": "row bottom-xs",
    "widgets": {
        "heading": {
            "type": "markup",
            "options": {
                "markup": "### QRDA Export Requests",
                "CSSClass": "col-xs-9"
            }
        },
        "rightButtons": {
            "type": "nav",
            "options": {
                "CSSClass": "col-xs-3",
                "cssClass": {
                    "btn btn-default pull-right": true
                },
                "type": "state",
                "state": "qrda.add",
                "text": "Add"                
            }
        },
        "border": {
            "type": "markup",
            "options": {
                "CSSClass": "col-xs-12",
                "markup": "***"
            }
        },  
        "qedaList": {
            "type": "gridBin",
            "options": {
                "addBtn": false,
                "paginationPageSize": 15,
                "noEdit": true,
                "noDelete": true,
                "htmlClass": "fieldset",
                "CSSClass": "col-xs-12 fieldset white-bg",
                "parent": "organization:001",
                "columnDefs": [{
                    "field": "qrdaCategoryValue",
                    "displayName": "QRDA Category",
                    "width": "15%"
                }, {
                    "field": "periodStartDate",
                    "width": "15%"
                }, {
                    "field": "periodEndDate",
                    "width": "15%"
                }, {
                    "field": "providerIdFirstName",
                    "displayName": "Provider name",
                    "width": "15%"
                }, {
                    "field": "providerId",
                    "width": "20%"
                }, {
                    "field": "patienId",
                    "width": "15%"
                }, {
                    "field": "id",
                    "type": "widget",
                    "width": "10%",
                    "displayName": "",
                    "cellClass": "no-padding-sides",
                    "enableSorting": false,
                    "content": {
                        "widgets": {
                            "buttons": {
                                "type": "nav",
                                "options": {
                                    "type": "list",
                                    "ulClass": {
                                        "action-buttons": true
                                    },
                                    "items": [{
                                        "type": "link",
                                        "icon": "{'fa fa-download': true}",
                                        "linkClass": "font-20 color-black",
                                        "tooltip": "Download File"
                                    }]
                                }
                            }
                        },
                        "miniFrisbee": [{
                            "get": ["id"],
                            "set": ["widgets", "buttons", "options", "items", 0, "stateParams", "patientDivisionId"]
                        }]
                    },
                    "repeat": {
                        "grid": false
                    }
                }]
            },
            "fetch": {
                "dataBone": {
                    "grid": {
                        "type": "qrdaExportRequest"
                    }
                }
            }
        }

    }
}
