{
    "name": "TreatmentPlan",
    "widgets": {
        "heading": {
            "type": "markup",
            "options": {
                "markup": "### Treatment Plan Config\n ***"
            }
        },
        "editForm": {
            "type": "forms",
            "operation": "update",
            "htmlClass": "row",
            "options": {
                "readonly": true,
                "view": true,
                "parent": "organization:001",
                "formClass": "fieldset white-bg",
                "form": [{
                    "type": "section",
                    "htmlClass": "row",
                    "items": [{
                        "type": "checkbox",
                        "key": "isProgramSpecific",
                        "sectionClass": "col-xs-3"
                    }, {
                        "type": "checkbox",
                        "key": "allowFreeText",
                        "sectionClass": "col-xs-3"
                    }, {
                        "key": "setApprovalDateAsStartDate",
                        "type": "checkbox",
                        "sectionClass": "col-xs-3"
                    }, {
                        "key": "startDate",
                        "type": "datepicker",
                        "sectionClass": "col-xs-3"
                    }, {
                        "key": "endDate",
                        "type": "datepicker",
                        "sectionClass": "col-xs-3"
                    }, {
                        "type": "select",
                        "placeholder": "<- Select Program ->",
                        "key": "programId",
                        "sectionClass": "col-xs-3"
                    }, {
                        "key": "txPlanLevelConfig",
                        "title": "Tx Plan Level Config",
                        "titleClass": "legend",
                        "add": "Add",
                        "style": {
                            "add": "btn-default"
                        },
                        "sectionClass": "col-xs-12",
                        "htmlClass": "row",
                        "startEmpty": true,
                        "items": [{
                            "key": "txPlanLevelConfig[].levelOrder",
                            "title": "Level Order",
                            "type": "select",
                            "placeholder": "<- Select Level Order ->",

                            "sectionClass": "col-xs-3"
                        }, {
                            "title": "Level Label",
                            "key": "txPlanLevelConfig[].levelLabel",
                            "sectionClass": "col-xs-3"
                        }, {
                            "title": "Show Effective Date",
                            "key": "txPlanLevelConfig[].showEffectiveDate",
                            "sectionClass": "col-xs-3"
                        }, {
                            "title": "Show Target Date",
                            "key": "txPlanLevelConfig[].showTargetDate",
                            "sectionClass": "col-xs-3"
                        }, {
                            "title": "Show End Date",
                            "key": "txPlanLevelConfig[].showEndDate",
                            "sectionClass": "col-xs-3"
                        }, {
                            "title": "Show Score",
                            "key": "txPlanLevelConfig[].showScore",
                            "sectionClass": "col-xs-3"
                        }, {
                            "title": "Show Assessed Need",
                            "key": "txPlanLevelConfig[].showAssessedNeed",
                            "sectionClass": "col-xs-3"
                        }, {
                            "title": "Map In From",
                            "key": "txPlanLevelConfig[].mapInFrom",
                            "type": "select",
                            "placeholder": "<- Select Map In From ->",
                            "sectionClass": "col-xs-3"
                        }, {
                            "title": "Show Priority",
                            "key": "txPlanLevelConfig[].showPriority",
                            "sectionClass": "col-xs-3"
                        }, {
                            "title": "Show As Evidenced By",
                            "key": "txPlanLevelConfig[].showAsEvidencedBy",
                            "sectionClass": "col-xs-3"
                        }, {
                            "title": "Show Modality",
                            "key": "txPlanLevelConfig[].showModality",
                            "sectionClass": "col-xs-3"
                        }, {
                            "title": "Show Frequency",
                            "key": "txPlanLevelConfig[].showFrequency",
                            "sectionClass": "col-xs-3"
                        }, {
                            "title": "Show Provider Responsibility",
                            "key": "txPlanLevelConfig[].showProviderResponsibility",
                            "sectionClass": "col-xs-3"
                        }, {
                            "title": "Show Patient Responsibility",
                            "key": "txPlanLevelConfig[].showPatientResponsibility",
                            "sectionClass": "col-xs-3"
                        }, {
                            "title": "Show Desired Outcome",
                            "key": "txPlanLevelConfig[].showDesiredOutcome",
                            "sectionClass": "col-xs-3"
                        }, {
                            "title": "Show Actual Outcomer",
                            "key": "txPlanLevelConfig[].showActualOutcome",
                            "sectionClass": "col-xs-3"
                        }, {
                            "key": "txPlanLevelConfig[].showAssociatedDiagnosis",
                            "title": "Show Associated Diagnosis",
                            "sectionClass": "col-xs-3"
                        }, {
                            "key": "txPlanLevelConfig[].showProgress",
                            "title": "Show Progress",
                            "sectionClass": "col-xs-3"
                        }, {
                            "key": "txPlanLevelConfig[].showProviderSignature",
                            "title": "Show Provider Signature",
                            "sectionClass": "col-xs-3"
                        }, {
                            "key": "txPlanLevelConfig[].showPatientSignature",
                            "title": "Show Patient Signature",
                            "sectionClass": "col-xs-3"
                        }, {
                            "condition": "!(model.isProgramSpecific) && model.txPlanLevelConfig[arrayIndex].levelOrder==\"metaTxLevelOrder:1\"",
                            "title": "Show Program",
                            "key": "txPlanLevelConfig[].showProgram",
                            "sectionClass": "col-xs-3"
                        }]
                    }, {
                        "type": "section",
                        "sectionClass": "col-xs-12",
                        "items": [{
                            "type": "section",
                            "htmlClass": "fieldset  end-xs",
                            "items": [{
                                "type": "section",
                                "htmlClass": "row end-xs",
                                "items": [{
                                    "fieldHtmlClass": "btnWidth",
                                    "type": "submit",
                                    "title": "Save",
                                    "style": "btn-default"
                                }, {
                                    "fieldHtmlClass": "btnWidth",
                                    "type": "button",
                                    "title": "Cancel",
                                    "onClick": "cancel()",
                                    "style": "btn-default"
                                }]
                            }]
                        }]
                    }]
                }],
                "messages": {
                    "cancelConfirm": "Are you sure you want to exit without saving changes?",
                    "deleteConfirm": "Are you sure you want to delete this item?"

                },
                "states": {
                    "onCancel": "txplanconfig.list",
                    "onSubmit": "txplanconfig.list"
                }
            },
            "fetch": {
                "metaBone": {
                    "objects": [{
                        "txPlanConfig": ["*", {
                            "txPlanLevelConfig": ["*"]
                        }]
                    }]
                },
                "dataBone": {
                    "programId": {
                        "type": "organizationDivisionProgram"
                    },
                    "txPlanLevelConfig[].mapInFrom": {
                        "type": "metaTxAssessedNeed"
                    },
                    "txPlanLevelConfig[].levelOrder": {
                        "type": "metaTxLevelOrder"
                    },
                    "populate": {
                        "child": [{
                            "type": "txPlanLevelConfig"
                        }]
                    }
                }
            }
        }
    },
    "balls": [{
        "get": "txPlanConfigId",
        "set": ["widgets", "editForm", "fetch", "dataBone", "populate", "objectId"]
    }]
}
